️CCTV-IPV6,#genre#
CCTV-01 综合,http://ottrrs.hl.chinamobile.com/PLTV/88888888/224/3221226016/index.m3u8
CCTV-02 财经,http://ottrrs.hl.chinamobile.com/PLTV/88888888/224/3221225588/index.m3u8
CCTV-03 综艺,http://ottrrs.hl.chinamobile.com/PLTV/88888888/224/3221226021/index.m3u8
CCTV-04 国际,http://ottrrs.hl.chinamobile.com/PLTV/88888888/224/3221226428/index.m3u8
CCTV-05 体育,http://39.134.24.166/dbiptv.sn.chinamobile.com/PLTV/88888888/224/3221226395/1.m3u8
CCTV+5+ 体育,http://ottrrs.hl.chinamobile.com/PLTV/88888888/224/3221225603/index.m3u8
CCTV-06 电影,http://ottrrs.hl.chinamobile.com/PLTV/88888888/224/3221226010/index.m3u8
CCTV-07 国防,http://ottrrs.hl.chinamobile.com/PLTV/88888888/224/3221225733/index.m3u8
CCTV-08 电视,http://ottrrs.hl.chinamobile.com/PLTV/88888888/224/3221226008/index.m3u8
CCTV-09 纪录,http://ottrrs.hl.chinamobile.com/PLTV/88888888/224/3221225734/index.m3u8
CCTV-10 科教,http://ottrrs.hl.chinamobile.com/PLTV/88888888/224/3221225730/index.m3u8
CCTV-11 戏曲,http://ottrrs.hl.chinamobile.com/PLTV/88888888/224/3221225597/index.m3u8
CCTV-12 社会,http://ottrrs.hl.chinamobile.com/PLTV/88888888/224/3221225731/index.m3u8
CCTV-13 新闻,http://ottrrs.hl.chinamobile.com/PLTV/88888888/224/3221226011/index.m3u8
CCTV-14 少儿,http://ottrrs.hl.chinamobile.com/PLTV/88888888/224/3221225732/index.m3u8
CCTV-15 音乐,http://ottrrs.hl.chinamobile.com/PLTV/88888888/224/3221225601/index.m3u8
CCTV-16 奥林,http://ottrrs.hl.chinamobile.com/PLTV/88888888/224/3221226100/index.m3u8
CCTV-17 农业,http://ottrrs.hl.chinamobile.com/PLTV/88888888/224/3221225765/index.m3u8
CCTV-01 综合,http://ottrrs.hl.chinamobile.com/PLTV/88888888/224/3221226419/index.m3u8
CCTV-02 财经,http://ottrrs.hl.chinamobile.com/PLTV/88888888/224/3221226540/index.m3u8
CCTV-03 综艺,http://ottrrs.hl.chinamobile.com/PLTV/88888888/224/3221226021/index.m3u8
CCTV-04 国际,http://ottrrs.hl.chinamobile.com/PLTV/88888888/224/3221226428/index.m3u8
CCTV-05 体育,http://ottrrs.hl.chinamobile.com/PLTV/88888888/224/3221226019/index.m3u8
CCTV+5+ 体育,http://ottrrs.hl.chinamobile.com/PLTV/88888888/224/3221225603/index.m3u8
CCTV-06 电影,http://ottrrs.hl.chinamobile.com/PLTV/88888888/224/3221226010/index.m3u8
CCTV-08 电视,http://ottrrs.hl.chinamobile.com/PLTV/88888888/224/3221226008/index.m3u8
CCTV-09 纪录,http://ottrrs.hl.chinamobile.com/PLTV/88888888/224/3221225734/index.m3u8
CCTV-10 科教,http://ottrrs.hl.chinamobile.com/PLTV/88888888/224/3221225730/index.m3u8
CCTV-12 社会,http://ottrrs.hl.chinamobile.com/PLTV/88888888/224/3221225731/index.m3u8
CCTV-13 新闻,http://ottrrs.hl.chinamobile.com/PLTV/88888888/224/3221226537/index.m3u8
CCTV-14 少儿,http://ottrrs.hl.chinamobile.com/PLTV/88888888/224/3221225732/index.m3u8
CCTV-16 奥林,http://ottrrs.hl.chinamobile.com/PLTV/88888888/224/3221226100/index.m3u8
CCTV-17 农业,http://ottrrs.hl.chinamobile.com/PLTV/88888888/224/3221225765/index.m3u8


CCTV-01 综合,http://ottrrs.hl.chinamobile.com/PLTV/88888888/224/3221226016/index.m3u8
CCTV-02 财经,http://ottrrs.hl.chinamobile.com/PLTV/88888888/224/3221226540/index.m3u8
CCTV-03 综艺,http://ottrrs.hl.chinamobile.com/PLTV/88888888/224/3221226021/index.m3u8
CCTV-05 体育,http://ottrrs.hl.chinamobile.com/PLTV/88888888/224/3221225603/index.m3u8
CCTV-04 国际,http://ottrrs.hl.chinamobile.com/PLTV/88888888/224/3221226428/index.m3u8
CCTV-05 体育,http://ottrrs.hl.chinamobile.com/PLTV/88888888/224/3221226019/index.m3u8
CCTV-06 电影,http://ottrrs.hl.chinamobile.com/PLTV/88888888/224/3221226010/index.m3u8
CCTV-09 纪录,http://ottrrs.hl.chinamobile.com/PLTV/88888888/224/3221225734/index.m3u8
CCTV-12 社会,http://ottrrs.hl.chinamobile.com/PLTV/88888888/224/3221225731/index.m3u8
CCTV-10 科教,http://ottrrs.hl.chinamobile.com/PLTV/88888888/224/3221225730/index.m3u8
CCTV-13 新闻,http://ottrrs.hl.chinamobile.com/PLTV/88888888/224/3221226537/index.m3u8
CCTV-14 少儿,http://ottrrs.hl.chinamobile.com/PLTV/88888888/224/3221225732/index.m3u8
CCTV-16 奥林,http://ottrrs.hl.chinamobile.com/PLTV/88888888/224/3221226100/index.m3u8
CCTV-16 奥林,http://ottrrs.hl.chinamobile.com/PLTV/88888888/224/3221226100/index.m3u8
CCTV-01 综合,http://ottrrs.hl.chinamobile.com/PLTV/88888888/224/3221226016/index.m3u8
CCTV-17 农业,http://ottrrs.hl.chinamobile.com/PLTV/88888888/224/3221225765/index.m3u8
CCTV-05 体育,http://ottrrs.hl.chinamobile.com/PLTV/88888888/224/3221226019/index.m3u8
CCTV-02 财经,http://ottrrs.hl.chinamobile.com/PLTV/88888888/224/3221226540/index.m3u8
CCTV-06 电影,http://ottrrs.hl.chinamobile.com/PLTV/88888888/224/3221226010/index.m3u8
CCTV-08 电视,http://ottrrs.hl.chinamobile.com/PLTV/88888888/224/3221226008/index.m3u8
CCTV-07 军事,http://ottrrs.hl.chinamobile.com/PLTV/88888888/224/3221225733/index.m3u8
CCTV-09 纪录,http://ottrrs.hl.chinamobile.com/PLTV/88888888/224/3221225734/index.m3u8
4K「自然」台,https://d18dyiwu97wm6q.cloudfront.net/playlist2160p.m3u8



央视频道移动,#genre#
CCTV-1综合,http://ottrrs.hl.chinamobile.com/PLTV/88888888/224/3221226016/index.m3u8
CCTV-2财经,http://ottrrs.hl.chinamobile.com/PLTV/88888888/224/3221226540/index.m3u8
CCTV-3综艺,http://ottrrs.hl.chinamobile.com/PLTV/88888888/224/3221226021/index.m3u8
CCTV-4中文,http://ottrrs.hl.chinamobile.com/PLTV/88888888/224/3221226428/index.m3u8
CCTV-5体育,http://ottrrs.hl.chinamobile.com/PLTV/88888888/224/3221226019/index.m3u8
CCTV-5+体育,http://ottrrs.hl.chinamobile.com/PLTV/88888888/224/3221225603/index.m3u8
CCTV-6电影,http://ottrrs.hl.chinamobile.com/PLTV/88888888/224/3221226010/index.m3u8
CCTV-7军事,http://ottrrs.hl.chinamobile.com/PLTV/88888888/224/3221225733/index.m3u8
CCTV-8电视,http://ottrrs.hl.chinamobile.com/PLTV/88888888/224/3221226008/index.m3u8
CCTV-9纪录,http://ottrrs.hl.chinamobile.com/PLTV/88888888/224/3221225734/index.m3u8
CCTV-10科教,http://ottrrs.hl.chinamobile.com/PLTV/88888888/224/3221225730/index.m3u8
CCTV-12社会,http://ottrrs.hl.chinamobile.com/PLTV/88888888/224/3221225731/index.m3u8
CCTV-13新闻,http://ottrrs.hl.chinamobile.com/PLTV/88888888/224/3221226537/index.m3u8
CCTV-14少儿,http://ottrrs.hl.chinamobile.com/PLTV/88888888/224/3221225732/index.m3u8
CCTV-16奥林,http://ottrrs.hl.chinamobile.com/PLTV/88888888/224/3221226100/index.m3u8
CCTV-17农业,http://ottrrs.hl.chinamobile.com/PLTV/88888888/224/3221225765/index.m3u8

央视频道IPV6,#genre#
CCTV-01,http://[2409:8087:1a01:df::7005]/ottrrs.hl.chinamobile.com/PLTV/88888888/224/3221226559/index.m3u8
CCTV-02,http://[2409:8087:1a01:df::7005]/ottrrs.hl.chinamobile.com/PLTV/88888888/224/3221226540/index.m3u8
CCTV-03,http://[2409:8087:1a01:df::4077]/PLTV/88888888/224/3221225799/index.m3u8
CCTV-04,http://[2409:8087:1a01:df::7005]/ottrrs.hl.chinamobile.com/PLTV/88888888/224/3221226428/index.m3u8
CCTV-05,http://[2409:8087:1a01:df::4077]/ottrrs.hl.chinamobile.com/PLTV/88888888/224/3221226019/index.m3u8
CCTV-05+,http://[2409:8087:1a01:df::4077]/PLTV/88888888/224/3221225507/index.m3u8
CCTV-06,http://[2409:8087:1a01:df::4077]/ottrrs.hl.chinamobile.com/PLTV/88888888/224/3221226010/index.m3u8
CCTV-07,http://[2409:8087:1a01:df::7005]/ottrrs.hl.chinamobile.com/PLTV/88888888/224/3221225733/index.m3u8
CCTV-08,http://[2409:8087:1a01:df::4077]/ottrrs.hl.chinamobile.com/PLTV/88888888/224/3221226008/index.m3u8
CCTV-09,http://[2409:8087:1a01:df::4077]/ottrrs.hl.chinamobile.com/PLTV/88888888/224/3221225734/index.m3u8
CCTV-10,http://[2409:8087:1a01:df::4077]/PLTV/88888888/224/3221225677/index.m3u8
CCTV-11,http://[2409:8087:1a01:df::7005]/ottrrs.hl.chinamobile.com/PLTV/88888888/224/3221226565/index.m3u8
CCTV-12,http://[2409:8087:1a01:df::4077]/ottrrs.hl.chinamobile.com/PLTV/88888888/224/3221225731/index.m3u8
CCTV-13,http://[2409:8087:1a01:df::7005]/ottrrs.hl.chinamobile.com/PLTV/88888888/224/3221226537/index.m3u8
CCTV-14,http://[2409:8087:1a01:df::4077]/ottrrs.hl.chinamobile.com/PLTV/88888888/224/3221225732/index.m3u8
CCTV-15,http://[2409:8087:1a01:df::7005]/ottrrs.hl.chinamobile.com/PLTV/88888888/224/3221226476/index.m3u8
CCTV-16,http://[2409:8087:1a01:df::4077]/PLTV/88888888/224/3221225893/index.m3u8
CCTV-17,http://[2409:8087:1a01:df::7005]/ottrrs.hl.chinamobile.com/PLTV/88888888/224/3221225765/index.m3u8

CCTV-01,http://[2409:8087:1a01:df::4077]/ottrrs.hl.chinamobile.com/PLTV/88888888/8/3221226016/index.m3u8
CCTV-02,http://[2409:8087:1a01:df::4077]/ottrrs.hl.chinamobile.com/PLTV/88888888/8/3221225588/index.m3u8
CCTV-03,http://[2409:8087:1a01:df::4077]/ottrrs.hl.chinamobile.com/PLTV/88888888/8/3221226021/index.m3u8
CCTV-04,http://[2409:8087:1a01:df::4077]/ottrrs.hl.chinamobile.com/PLTV/88888888/8/3221226007/index.m3u8
CCTV-05,http://[2409:8087:1a01:df::4077]/ottrrs.hl.chinamobile.com/PLTV/88888888/8/3221226019/index.m3u8
CCTV5-+,http://[2409:8087:1a01:df::4077]/ottrrs.hl.chinamobile.com/PLTV/88888888/8/3221225603/index.m3u8
CCTV-06,http://[2409:8087:1a01:df::4077]/ottrrs.hl.chinamobile.com/PLTV/88888888/8/3221226010/index.m3u8
CCTV-07,http://[2409:8087:1a01:df::4077]/ottrrs.hl.chinamobile.com/PLTV/88888888/8/3221225733/index.m3u8
CCTV-08,http://[2409:8087:1a01:df::4077]/ottrrs.hl.chinamobile.com/PLTV/88888888/8/3221226008/index.m3u8
CCTV-09,http://[2409:8087:1a01:df::4077]/ottrrs.hl.chinamobile.com/PLTV/88888888/8/3221225734/index.m3u8
CCTV-10,http://[2409:8087:1a01:df::4077]/ottrrs.hl.chinamobile.com/PLTV/88888888/8/3221225730/index.m3u8
CCTV-11,http://[2409:8087:1a01:df::4077]/ottrrs.hl.chinamobile.com/PLTV/88888888/8/3221225597/index.m3u8
CCTV-12,http://[2409:8087:1a01:df::4077]/ottrrs.hl.chinamobile.com/PLTV/88888888/8/3221225731/index.m3u8
CCTV-13,http://[2409:8087:1a01:df::4077]/ottrrs.hl.chinamobile.com/PLTV/88888888/8/3221226011/index.m3u8
CCTV-14,http://[2409:8087:1a01:df::4077]/ottrrs.hl.chinamobile.com/PLTV/88888888/8/3221225732/index.m3u8
CCTV-15,http://[2409:8087:1a01:df::4077]/ottrrs.hl.chinamobile.com/PLTV/88888888/8/3221225601/index.m3u8
CCTV-16,http://[2409:8087:1a01:df::4077]/ottrrs.hl.chinamobile.com/PLTV/88888888/8/3221226100/index.m3u8
CCTV-17,http://[2409:8087:1a01:df::4077]/ottrrs.hl.chinamobile.com/PLTV/88888888/8/3221225765/index.m3u8

央视频道,#genre#
CCTV-1综合高清,http://opdf.top:8088/rtp/239.81.0.102:4056
CCTV-2财经高清,http://opdf.top:8088/rtp/239.81.0.115:4056
CCTV-3综艺高清,http://opdf.top:8088/rtp/239.81.0.231:4056
CCTV-4中文国际高清,http://opdf.top:8088/rtp/239.81.0.96:4056
CCTV-5体育高清,http://opdf.top:8088/rtp/239.81.0.232:4056
CCTV-6电影高清,http://opdf.top:8088/rtp/239.81.0.233:4056
CCTV-7国防军事高清,http://opdf.top:8088/rtp/239.81.0.116:4056
CCTV-8电视剧高清,http://opdf.top:8088/rtp/239.81.0.234:4056
CCTV-9纪录高清,http://opdf.top:8088/rtp/239.81.0.117:4056
CCTV-10科教高清,http://opdf.top:8088/rtp/239.81.0.118:4056
CCTV-11戏曲高清,http://opdf.top:8088/rtp/239.81.0.229:4056
CCTV-12社会与法高清,http://opdf.top:8088/rtp/239.81.0.119:4056
CCTV-13新闻高清,http://opdf.top:8088/rtp/239.81.0.206:4056
CCTV-14少儿高清,http://opdf.top:8088/rtp/239.81.0.120:4056
CCTV-15音乐高清,http://opdf.top:8088/rtp/239.81.0.230:4056
CCTV-5＋体育赛事高清,http://opdf.top:8088/rtp/239.81.0.101:4056
CCTV-16奥林匹克高清,http://opdf.top:8088/rtp/239.81.0.142:4056
CCTV-17农业农村高清,http://opdf.top:8088/rtp/239.81.0.228:4056

卫视频道,#genre#
四川卫视,http://ottrrs.hl.chinamobile.com/PLTV/88888888/224/3221226338/index.m3u8
四川卫视,http://[2409:8087:1a01:df::4077]/ottrrs.hl.chinamobile.com/PLTV/88888888/224/3221226338/index.m3u8
四川卫视,http://[2409:8087:1a01:df::4077]/PLTV/88888888/224/3221225970/index.m3u8
四川卫视,http://ottrrs.hl.chinamobile.com/PLTV/88888888/224/3221226338/index.m3u8
重庆卫视,http://[2409:8087:1a01:df::4077]/PLTV/88888888/224/3221225963/index.m3u8
浙江卫视,http://[2409:8087:1a01:df::7005]/ottrrs.hl.chinamobile.com/PLTV/88888888/224/3221226339/index.m3u8
重庆卫视,http://[2409:8087:1a01:df::4077]/ottrrs.hl.chinamobile.com/PLTV/88888888/224/3221226409/index.m3u8
重庆卫视,http://ottrrs.hl.chinamobile.com/PLTV/88888888/224/3221226409/index.m3u8
重庆卫视,http://ottrrs.hl.chinamobile.com/PLTV/88888888/224/3221226409/index.m3u8
安徽卫视,http://[2409:8087:1a01:df::4077]/PLTV/88888888/224/3221225925/index.m3u8
安徽卫视,http://[2409:8087:1a01:df::4077]/ottrrs.hl.chinamobile.com/PLTV/88888888/224/3221226391/index.m3u8
安徽卫视,http://ottrrs.hl.chinamobile.com/PLTV/88888888/224/3221226391/index.m3u8
安徽卫视,http://ottrrs.hl.chinamobile.com/PLTV/88888888/224/3221226391/index.m3u8
天津卫视,http://[2409:8087:1a01:df::4077]/PLTV/88888888/224/3221225972/index.m3u8
天津卫视,http://[2409:8087:1a01:df::4077]/ottrrs.hl.chinamobile.com/PLTV/88888888/224/3221226459/index.m3u8
天津卫视,http://ottrrs.hl.chinamobile.com/PLTV/88888888/224/3221225740/index.m3u8
天津卫视,http://ottrrs.hl.chinamobile.com/PLTV/88888888/224/3221226459/index.m3u8
山西卫视,http://[2409:8087:1a01:df::4077]/PLTV/88888888/224/3221226009/index.m3u8
山东卫视,http://[2409:8087:1a01:df::4077]/PLTV/88888888/224/3221225952/index.m3u8
山东卫视,http://[2409:8087:1a01:df::4077]/ottrrs.hl.chinamobile.com/PLTV/88888888/224/3221226456/index.m3u8
山东卫视,http://ottrrs.hl.chinamobile.com/PLTV/88888888/224/3221226456/index.m3u8
山东卫视,http://ottrrs.hl.chinamobile.com/PLTV/88888888/224/3221226456/index.m3u8
东南卫视,http://[2409:8087:1a01:df::4077]/ottrrs.hl.chinamobile.com/PLTV/88888888/224/3221226341/index.m3u8
东南卫视,http://[2409:8087:1a01:df::4077]/PLTV/88888888/224/3221225950/index.m3u8
东南卫视,http://ottrrs.hl.chinamobile.com/PLTV/88888888/224/3221226341/index.m3u8
东南卫视,http://ottrrs.hl.chinamobile.com/PLTV/88888888/224/3221226341/index.m3u8
海南卫视,http://ottrrs.hl.chinamobile.com/PLTV/88888888/224/3221226465/index.m3u8
海南卫视,http://[2409:8087:1a01:df::4077]/PLTV/88888888/224/3221225978/index.m3u8
海南卫视,http://ottrrs.hl.chinamobile.com/PLTV/88888888/224/3221226465/index.m3u8
河南卫视,http://[2409:8087:1a01:df::4077]/ottrrs.hl.chinamobile.com/PLTV/88888888/224/3221226480/index.m3u8
河南卫视,http://[2409:8087:1a01:df::4077]/PLTV/88888888/224/3221225988/index.m3u8
河南卫视,http://ottrrs.hl.chinamobile.com/PLTV/88888888/224/3221226480/index.m3u8
河南卫视,http://ottrrs.hl.chinamobile.com/PLTV/88888888/224/3221226480/index.m3u8
湖北卫视,http://ottrrs.hl.chinamobile.com/PLTV/88888888/224/3221226477/index.m3u8
湖北卫视,http://[2409:8087:1a01:df::4077]/PLTV/88888888/224/3221225975/index.m3u8
湖北卫视,http://ottrrs.hl.chinamobile.com/PLTV/88888888/224/3221225627/index.m3u8
河北卫视,http://[2409:8087:1a01:df::4077]/PLTV/88888888/224/3221225961/index.m3u8
河北卫视,http://ottrrs.hl.chinamobile.com/PLTV/88888888/224/3221226406/index.m3u8
河北卫视,http://ottrrs.hl.chinamobile.com/PLTV/88888888/224/3221226406/index.m3u8
湖南卫视,http://ottrrs.hl.chinamobile.com/PLTV/88888888/224/3221226307/index.m3u8
湖南卫视,http://ottrrs.hl.chinamobile.com/PLTV/88888888/224/3221225610/index.m3u8
东方卫视,http://ottrrs.hl.chinamobile.com/PLTV/88888888/224/3221225735/index.m3u8
东方卫视,http://[2409:8087:1a01:df::4077]/PLTV/88888888/224/3221225942/index.m3u8
东方卫视,http://[2409:8087:1a01:df::4077]/ottrrs.hl.chinamobile.com/PLTV/88888888/224/3221226345/index.m3u8
东方卫视,http://ottrrs.hl.chinamobile.com/PLTV/88888888/224/3221226345/index.m3u8
辽宁卫视,http://ottrrs.hl.chinamobile.com/PLTV/88888888/224/3221226546/index.m3u8
黑龙江视,http://ottrrs.hl.chinamobile.com/PLTV/88888888/224/3221226327/index.m3u8
吉林卫视,http://[2409:8087:1a01:df::4077]/PLTV/88888888/224/3221225981/index.m3u8
吉林卫视,http://ottrrs.hl.chinamobile.com/PLTV/88888888/224/3221226397/index.m3u8
广西卫视,http://ottrrs.hl.chinamobile.com/PLTV/88888888/224/3221226380/index.m3u8
江西卫视,http://[2409:8087:1a01:df::4077]/PLTV/88888888/224/3221225935/index.m3u8
24/3221226344/index.m3u8
江西卫视,http://ottrrs.hl.chinamobile.com/PLTV/88888888/224/3221226344/index.m3u8
江西卫视,http://ottrrs.hl.chinamobile.com/PLTV/88888888/224/3221226344/index.m3u8
江苏卫视,http://39.134.24.166/dbiptv.sn.chinamobile.com/PLTV/88888890/224/3221226200/index.m3u8
江苏卫视,http://[2409:8087:1a01:df::4077]/ottrrs.hl.chinamobile.com/PLTV/88888888/224/3221226310/index.m3u8
江苏卫视,http://[2409:8087:1a01:df::4077]/PLTV/88888888/224/3221225938/index.m3u8
江苏卫视,http://ottrrs.hl.chinamobile.com/PLTV/88888888/224/3221226310/index.m3u8
江苏卫视,http://ottrrs.hl.chinamobile.com/PLTV/88888888/224/3221225613/index.m3u8
深圳卫视,http://[2409:8087:1a01:df::4077]/PLTV/88888888/224/3221225943/index.m3u8
深圳卫视,http://[2409:8087:1a01:df::4077]/ottrrs.hl.chinamobile.com/PLTV/88888888/224/3221226313/index.m3u8
深圳卫视,http://ottrrs.hl.chinamobile.com/PLTV/88888888/224/3221226313/index.m3u8
广东卫视,http://ottrrs.hl.chinamobile.com/PLTV/88888888/224/3221226248/index.m3u8
广东卫视,http://ottrrs.hl.chinamobile.com/PLTV/88888888/224/3221226248/index.m3u8
广东卫视,http://[2409:8087:1a01:df::4077]/PLTV/88888888/224/3221225966/index.m3u8
广东卫视,http://[2409:8087:1a01:df::4077]/ottrrs.hl.chinamobile.com/PLTV/88888888/224/3221226248/index.m3u8
北京卫视,http://39.134.24.162/dbiptv.sn.chinamobile.com/PLTV/88888890/224/3221225796/index.m3u8
北京卫视,http://ottrrs.hl.chinamobile.com/PLTV/88888888/224/3221225728/index.m3u8
北京卫视,http://[2409:8087:1a01:df::4077]/ottrrs.hl.chinamobile.com/PLTV/88888888/224/3221226450/index.m3u8
北京卫视,http://[2409:8087:1a01:df::4077]/PLTV/88888888/224/3221225931/index.m3u8
北京卫视,http://ottrrs.hl.chinamobile.com/PLTV/88888888/224/3221226450/index.m3u8
云南卫视,http://ottrrs.hl.chinamobile.com/PLTV/88888888/224/3221226444/index.m3u8
贵州卫视,http://ottrrs.hl.chinamobile.com/PLTV/88888888/224/3221226474/index.m3u8
贵州卫视,http://[2409:8087:1a01:df::4077]/PLTV/88888888/224/3221225974/index.m3u8
24/3221226474/index.m3u8
贵州卫视,http://ottrrs.hl.chinamobile.com/PLTV/88888888/224/3221226474/index.m3u8
甘肃卫视,http://[2409:8087:74F1:0021::0008]:80/270000001111/1110000322/index.m3u8?IASHttpSessionId=OTT
甘肃卫视,http://ottrrs.hl.chinamobile.com/PLTV/88888888/224/3221225633/index.m3u8
延边卫视,http://live.ybtvyun.com/video/s10006-44f040627ca1/index.m3u8
陕西卫视,http://[2409:8087:1a01:df::4077]/PLTV/88888888/224/3221225989/index.m3u8
陕西卫视,http://ottrrs.hl.chinamobile.com/PLTV/88888888/224/3221226457/index.m3u8
黑龙江卫视,http://39.134.24.162/dbiptv.sn.chinamobile.com/PLTV/88888890/224/3221225802/index.m3u8
黑龙江卫视,http://[2409:8087:1a01:df::4077]/ottrrs.hl.chinamobile.com/PLTV/88888888/224/3221226327/index.m3u8
黑龙江卫视,http://[2409:8087:1a01:df::4077]/PLTV/88888888/224/3221225985/index.m3u8
黑龙江卫视,http://[2409:8087:1a01:df::4001]/ottrrs.hl.chinamobile.com/PLTV/88888888/224/3221226327/1.m3u8
青海卫视,http://stream.qhbtv.com/qhws/sd/live.m3u8
青海卫视,http://stream.qhbtv.com/qhws/sd/live.m3u8
苏州4K,http://liveshowbak2.kan0512.com/ksz-norecord/csztv4k_4k.m3u8
苏州4K,http://liveshowbak2.kan0512.com/norecord/csztv4k_4k.m3u8

卫视IPV6,#genre#

湖南卫视「IPV6」,http://[2409:8087:1a01:df::7005]/ottrrs.hl.chinamobile.com/PLTV/88888888/224/3221226307/index.m3u8
浙江卫视「IPV6」,http://[2409:8087:1a01:df::7005]/ottrrs.hl.chinamobile.com/PLTV/88888888/224/3221226339/index.m3u8
江苏卫视「IPV6」,http://[2409:8087:1a01:df::7005]/ottrrs.hl.chinamobile.com/PLTV/88888888/224/3221226310/index.m3u8
东方卫视「IPV6」,http://[2409:8087:1a01:df::7005]/ottrrs.hl.chinamobile.com/PLTV/88888888/224/3221226345/index.m3u8
广东卫视「IPV6」,http://[2409:8087:1a01:df::7005]/ottrrs.hl.chinamobile.com/PLTV/88888888/224/3221226248/index.m3u8
广西卫视「IPV6」,http://[2409:8087:1a01:df::7005]/ottrrs.hl.chinamobile.com/PLTV/88888888/224/3221226549/index.m3u8
深圳卫视「IPV6」,http://[2409:8087:1a01:df::7005]/ottrrs.hl.chinamobile.com/PLTV/88888888/224/3221226313/index.m3u8
北京卫视「IPV6」,http://[2409:8087:1a01:df::7005]/ottrrs.hl.chinamobile.com/PLTV/88888888/224/3221226450/index.m3u8
东南卫视「IPV6」,http://[2409:8087:1a01:df::7005]/ottrrs.hl.chinamobile.com/PLTV/88888888/224/3221226341/index.m3u8
四川卫视「IPV6」,http://[2409:8087:1a01:df::7005]/ottrrs.hl.chinamobile.com/PLTV/88888888/224/3221226338/index.m3u8
天津卫视「IPV6」,http://[2409:8087:1a01:df::7005]/ottrrs.hl.chinamobile.com/PLTV/88888888/224/3221226459/index.m3u8
安徽卫视「IPV6」,http://[2409:8087:1a01:df::7005]/ottrrs.hl.chinamobile.com/PLTV/88888888/224/3221226391/index.m3u8
山东卫视「IPV6」,http://[2409:8087:1a01:df::7005]/ottrrs.hl.chinamobile.com/PLTV/88888888/224/3221226456/index.m3u8
江西卫视「IPV6」,http://[2409:8087:1a01:df::7005]/ottrrs.hl.chinamobile.com/PLTV/88888888/224/3221226344/index.m3u8
河北卫视「IPV6」,http://[2409:8087:1a01:df::7005]/ottrrs.hl.chinamobile.com/PLTV/88888888/224/3221226406/index.m3u8
河南卫视「IPV6」,http://[2409:8087:1a01:df::7005]/ottrrs.hl.chinamobile.com/PLTV/88888888/224/3221226480/index.m3u8
海南卫视「IPV6」,http://[2409:8087:1a01:df::7005]/ottrrs.hl.chinamobile.com/PLTV/88888888/224/3221226465/index.m3u8
湖北卫视「IPV6」,http://[2409:8087:1a01:df::7005]/ottrrs.hl.chinamobile.com/PLTV/88888888/224/3221226477/index.m3u8
贵州卫视「IPV6」,http://[2409:8087:1a01:df::7005]/ottrrs.hl.chinamobile.com/PLTV/88888888/224/3221226474/index.m3u8
辽宁卫视「IPV6」,http://[2409:8087:1a01:df::7005]/ottrrs.hl.chinamobile.com/PLTV/88888888/224/3221226546/index.m3u8
重庆卫视「IPV6」,http://[2409:8087:1a01:df::7005]/ottrrs.hl.chinamobile.com/PLTV/88888888/224/3221226409/index.m3u8
吉林卫视「IPV6」,http://[2409:8087:1a01:df::7005]/ottrrs.hl.chinamobile.com/PLTV/88888888/224/3221226397/index.m3u8
黑龙江视「IPV6」,http://[2409:8087:1a01:df::7005]/ottrrs.hl.chinamobile.com/PLTV/88888888/224/3221226327/index.m3u8

地方频道,#genre#
安徽｜影视,http://112.30.194.221:20080/live/d18ff95cb1fb4bbcb56215e189fc12be/hls.m3u8?zanhd
安徽｜导视,https://livehls1.appcoo.com/liveshopping/949E0A98C9D0C311/6D925141BC1F8C28/index.m3u8
安徽｜固镇新闻,http://www.guzhenm.com:7001/hls/hd-live.m3u8?zanhd
安徽｜宿州公共,http://live.ahsz.tv/video/s10001-ggpd/index.m3u8
安徽｜宿州科教,http://live.ahsz.tv/video/s10001-kxjy/index.m3u8
安徽｜宿州新闻综合,http://live.ahsz.tv/video/s10001-szzh/index.m3u8
北京｜石景山有线,http://live.sjsrm.com/bjsjs/sd/live.m3u8?zbeid
北京｜房山无线,http://live.funhillrm.com/2/sd/live.m3u8?zbeid
北京｜卫视,http://[2409:8087:1a01:df::4077]/PLTV/88888888/224/3221225931/index.m3u8
重庆｜璧山综合,http://222.179.42.129:8181/hls1.m3u8?zzhongqd
重庆｜万源新闻综合,http://live.wanyuannews.com/wytv/hd/live.m3u8
福建｜漳州新闻,http://31182.hlsplay.aodianyun.com/lms_31182/tv_channel_175.m3u8
福建｜漳州新闻,http://31182.hlsplay.aodianyun.com/lms_31182/tv_channel_175.m3u8?zfud
重庆｜卫视,http://[2409:8087:1a01:df::4077]/PLTV/88888888/224/3221225963/index.m3u8
广东｜深圳都市,http://livepull-tcyzb.sztv.com.cn/showto_live/dushi01.m3u8
广东｜GRTN文化,https://glive.grtn.cn/live/wenhua_test0203.m3u8
广东｜GRTN文化,https://glive.grtn.cn/live/wenhua_test0203.m3u8?auth_key=1612881417-0-0-bc7ddba066481bc805fc1e800654e721
广东｜GRTN文化,https://glive.grtn.cn/live/wenhua_test0203.m3u8?auth_key=1617289309-0-0-7b2730980c8860963374597c20ad3935
广东｜卫视,http://[2409:8087:1a01:df::4077]/PLTV/88888888/224/3221225966/index.m3u8
广西｜罗城综合,http://111.12.75.177:9100/lctvlive/lch.m3u8?zguangxd
广西｜罗城综合,http://111.12.75.177:9100/lctvlive/lch.m3u8
广西｜北海新闻,http://rtmp.gdlive.gdmain.com/live/09em4xbl.m3u8
广西｜桂林新闻,https://pull.gltvs.com/live/glxw/playlist.m3u8?v=b0528684bf934e120e1c30fc808e6576&t=1796868188
广西｜贺州,http://zhz.gxhzxw.com:2935/live/HZXW-HD/chunklist.m3u8
贵州｜松桃新闻,http://live.strmtzx.cn/stxw/sd/live.m3u8
贵州｜卫视,http://[2409:8087:1a01:df::4077]/PLTV/88888888/224/3221225974/index.m3u8
河北｜邯郸新闻,https://jwliveqxzb.hebyun.com.cn/hdxwzh/hdxwzh.m3u8
河北｜邯郸公共,https://jwliveqxzb.hebyun.com.cn/hdgg/hdgg.m3u8
河北｜邯郸公共,https://jwcdnqx.hebyun.com.cn/live/hdgg/1500k/tzwj_video.m3u8?zhebd
河北｜邯郸科教,https://jwliveqxzb.hebyun.com.cn/hdkj/hdkj.m3u8?zhebd
河北｜邯郸科教,https://jwliveqxzb.hebyun.com.cn/hdkj/hdkj.m3u8
河北｜邯郸科教,https://jwcdnqx.hebyun.com.cn/live/hdkj/1500k/tzwj_video.m3u8?zhebd
河北｜武汉生活,http://stream.appwuhan.com/3tzb/sd/live.m3u8
河北｜武汉教育,http://stream.appwuhan.com/jyzb/sd/live.m3u8
海南｜卫视,http://[2409:8087:1a01:df::4077]/PLTV/88888888/224/3221225978/index.m3u8
河北｜荆门新闻,http://stream.jmtv.com.cn/xwzh/sd/live.m3u8
河北｜荆门教育,http://stream.jmtv.com.cn/ggsh/sd/live.m3u8
河北｜任丘文娱,https://jwcdnqx.hebyun.com.cn/live/rqtv2/1500k/tzwj_video.m3u8
河北｜卫视,http://[2409:8087:1a01:df::4077]/PLTV/88888888/224/3221225961/index.m3u8
河北｜任丘综合,https://jwcdnqx.hebyun.com.cn/live/rqtv1/1500k/tzwj_video.m3u8
河北｜兴隆综合,https://jwcdnqx.hebyun.com.cn/live/xlzh/1500k/tzwj_video.m3u8
河北｜平泉影视,https://jwliveqxzb.hebyun.com.cn/pqys/pqys.m3u8
河北｜平泉综合,https://jwliveqxzb.hebyun.com.cn/pqzh/pqzh.m3u8
河北｜清河新闻综合,https://jwcdnqx.hebyun.com.cn/live/qinghe/1500k/tzwj_video.m3u8
河北｜清河经济综艺,https://jwcdnqx.hebyun.com.cn/live/qinghe1/1500k/tzwj_video.m3u8
河北｜鹿泉一套,https://jwliveqxzb.hebyun.com.cn/luquanyi/luquanyi.m3u8?zhebd
河北｜鹿泉一套,https://jwliveqxzb.hebyun.com.cn/luquanyi/luquanyi.m3u8
河北｜鹿泉一套,https://jwcdnqx.hebyun.com.cn/live/luquanyi/1500k/tzwj_video.m3u8?zhebd
河南｜梨园,http://[2409:8087:4c0a:22:1::11]:6410/170000001115/UmaiCHAN6380788ba7bed/index.m3u8?AuthInfo=toEYVdLfxymUP2l9NZpQI5%2BK6T7j%2FlRm%2BvbM9VO7bA0q1S1k1f36SqqriM0FZoFSAJRfCt8SS7X6sTRmXb81a8O4H%2FdroDKjLoDeaMQdyJQ
河南｜临颍综合,http://tvpull.dxhmt.cn:9081/tv/11122-1.m3u8
河南｜义马新闻综合,http://tvpull.dxhmt.cn:9081/tv/11281-1.m3u8
河南｜光山综合,http://tvpull.dxhmt.cn:9081/tv/11522-1.m3u8
河南｜兰考新闻,http://tvpull.dxhmt.cn:9081/tv/10225-1.m3u8
河南｜内黄综合频道,http://tvpull.dxhmt.cn:9081/tv/10527-1.m3u8?zhend
河南｜卫视,http://[2409:8087:1a01:df::4077]/PLTV/88888888/224/3221225988/index.m3u8
河南｜叶县,http://tvpull.dxhmt.cn:9081/tv/10422-1.m3u8
河南｜唐河一套,http://tvpull.dxhmt.cn:9081/tv/11328-1.m3u8
河南｜唐河一套,http://tvpull.dxhmt.cn:9081/tv/11328-1.m3u8?zhend
河南｜固始综合,http://tvpull.dxhmt.cn:9081/tv/11525-1.m3u8
河南｜宜阳综合频道,http://tvpull.dxhmt.cn:9081/tv/10327-1.m3u8?zhend
河南｜宝丰综合频道,http://tvpull.dxhmt.cn:9081/tv/10421-1.m3u8?zhend
河南｜嵩县综合新闻,http://tvpull.dxhmt.cn:9081/tv/10325-1.m3u8?zhend
河南｜巩义新闻综合,http://tvpull.dxhmt.cn:9081/tv/10181-1.m3u8?zhend
河南｜扶沟综合,http://tvpull.dxhmt.cn:9081/tv/11621-1.m3u8
河南｜扶沟综合,http://tvpull.dxhmt.cn:9081/tv/11621-1.m3u8?zhend
河南｜新乡县电视台,http://tvpull.dxhmt.cn:9081/tv/10721-1.m3u8?zhend
河南｜新乡县电视台,http://tvpull.dxhmt.cn:9081/tv/10721-1.m3u8
河南｜新县综合,http://tvpull.dxhmt.cn:9081/tv/11523-1.m3u8
河南｜新安新闻综合,http://tvpull.dxhmt.cn:9081/tv/10323-1.m3u8?zhend
河南｜新蔡综合,http://tvpull.dxhmt.cn:9081/tv/11729-1.m3u8
河南｜新野综合,http://tvpull.dxhmt.cn:9081/tv/11329-1.m3u8?zhend
河南｜方城一套,http://tvpull.dxhmt.cn:9081/tv/11322-1.m3u8?zhend
河南｜桐柏新闻综合,http://tvpull.dxhmt.cn:9081/tv/11330-1.m3u8
河南｜桐柏新闻综合,http://tvpull.dxhmt.cn:9081/tv/11330-1.m3u8?zhend
河南｜泌阳新闻综合,http://tvpull.dxhmt.cn:9081/tv/11726-1.m3u8
河南｜济源电视一套,http://tvpull.dxhmt.cn:9081/tv/19001-1.m3u8?zhend
河南｜渑池新闻综合,http://tvpull.dxhmt.cn:9081/tv/11221-1.m3u8
河南｜温县综合,http://tvpull.dxhmt.cn:9081/tv/10825-1.m3u8?zhend
河南｜滑县新闻,http://tvpull.dxhmt.cn:9081/tv/10526-1.m3u8?zhend
河南｜潢川综合,http://tvpull.dxhmt.cn:9081/tv/11526-1.m3u8
河南｜灵宝新闻综合,http://tvpull.dxhmt.cn:9081/tv/11282-1.m3u8?zhend
河南｜焦作公共,http://zhpull.dxhmt.cn/jiaozuo/29b65b69130c4ef1a3283cc7b913da05/playlist.m3u8
河南｜焦作公共,http://zhpull.dxhmt.cn/jiaozuo/29b65b69130c4ef1a3283cc7b913da05/playlist.m3u8?zhend
河南｜登封综合,http://tvpull.dxhmt.cn:9081/tv/10185-1.m3u8
河南｜禹州公共,http://tvpull.dxhmt.cn/tv/11081-2.m3u8?zhend
河南｜禹州综合,http://tvpull.dxhmt.cn:9081/tv/11081-1.m3u8?zhend
河南｜荥阳综合,http://tvpull.dxhmt.cn:9081/tv/10182-1.m3u8?zhend
河南｜禹州公共,http://tvpull.dxhmt.cn:9081/tv/11081-2.m3u8
河南｜西华综合,http://tvpull.dxhmt.cn:9081/tv/11622-1.m3u8?zhend
河南｜邓州新闻,http://tvpull.dxhmt.cn:9081/tv/11381-1.m3u8?zhend
河南｜郏县综合,http://tvpull.dxhmt.cn:9081/tv/10425-1.m3u8?zhend
河南｜鄢陵综合,http://tvpull.dxhmt.cn:9081/tv/11024-1.m3u8
河南｜鹿邑新闻频道,http://tvpull.dxhmt.cn:9081/tv/11628-1.m3u8?zhend
湖北｜公共新闻,http://[2409:8087:4c0a:22:1::11]:6410/170000001115/UmaiCHAN6380726d0ee3b/index.m3u8?AuthInfo=9kOOdBn7MFF%2F2bWjKgahUUAdKgLqNB5aOAUhcp5CeNKgjpyhD%2FJd6SZjkcHAKXbsjwotAY57dianC4%2ByY7artm7J7F4GFO6G99D0bYMJRxI
湖北｜垄上,http://[2409:8087:4c0a:22:1::11]:6410/170000001115/UmaiCHAN638072463c333/index.m3u8?AuthInfo=9kOOdBn7MFF%2F2bWjKgahUUAdKgLqNB5aOAUhcp5CeNL%2Be1h4FfA5QqwJ7IPOz3p2qIS7djSxm17Htd%2FckZkm%2FVqsKHEJFJt26ju9iibzMEo
湖北｜卫视,http://[2409:8087:1a01:df::4077]/PLTV/88888888/224/3221225975/index.m3u8
湖北｜影视,http://[2409:8087:4c0a:22:1::11]:6410/170000001115/UmaiCHAN6380728abccd2/index.m3u8?AuthInfo=9kOOdBn7MFF%2F2bWjKgahUUAdKgLqNB5aOAUhcp5CeNKU1xiiKGJYFBZK9RpEkaggogtHJZW6nJQqLppbEYE%2BqJ9kJW%2FMvKldfS2dCii9VSI
湖北｜教育,http://[2409:8087:4c0a:22:1::11]:6410/170000001115/UmaiCHAN638072a6cbbf6/index.m3u8?AuthInfo=9kOOdBn7MFF%2F2bWjKgahUUAdKgLqNB5aOAUhcp5CeNKTFQuOKNd5i0HMa3ydMWIQ6kJ2fBJGJ77BLTXK72CqUYQsX3ZguYt0954s9hfZTfc
湖北｜生活,http://[2409:8087:4c0a:22:1::11]:6410/170000001115/UmaiCHAN638072c62e405/index.m3u8?AuthInfo=9kOOdBn7MFF%2F2bWjKgahUUAdKgLqNB5aOAUhcp5CeNKJPodw5BcDirSOw7egztI5bUvJjqPzSNAhrA37GrbRBIAjGQpzP0QmgsmuHnQyd2c
湖北｜经视,http://[2409:8087:4c0a:22:1::11]:6410/170000001115/UmaiCHAN63807203543e3/index.m3u8?AuthInfo=9kOOdBn7MFF%2F2bWjKgahUUAdKgLqNB5aOAUhcp5CeNLVCQ3pDe4nBySab%2B3xPL123aTSCRugzF2ABe36IIJw2evZbYdWUo0ffUw53bflDgU
湖北｜综合,http://[2409:8087:4c0a:22:1::11]:6410/170000001115/UmaiCHAN638072216f7da/index.m3u8?AuthInfo=9kOOdBn7MFF%2F2bWjKgahUUAdKgLqNB5aOAUhcp5CeNLx3R3LdIBdA5q61lut1LwZcw4SC2tJubc%2Bq5t%2F61jvWCtjrJL0x%2BHncPgdmcbBW9I
湖北｜武汉新闻,http://stream.appwuhan.com/1tzb/sd/live.m3u8
湖北｜武汉经济,http://stream.appwuhan.com/4tzb/sd/live.m3u8
湖北｜荆门新闻综合,http://stream.jmtv.com.cn/xwzh/sd/live.m3u8?zhubd
湖南｜金鹰纪实,http://[2409:8087:4c0a:22:1::11]:6410/170000001115/UmaiCHAN4766929BESTVSMGSMG/index.m3u8?AuthInfo=9kOOdBn7MFF%2F2bWjKgahUaWf4k%2B88FALXqp3i7ExZ4HArfvJF2pWpm4RxcBNhZ7j8oKdkoj6hFDX2k81AyJk8L2ZgQL4lTNsyfhwMVyjNWA
湖南｜快乐垂钓,http://[2409:8087:4c0a:22:1::11]:6410/170000001115/UmaiCHAN638729b6002c4/index.m3u8?AuthInfo=9kOOdBn7MFF%2F2bWjKgahUSBx06ZL9Bo6JOM%2BSTjxZRJiJ8tFyWVQ4LIMJg%2BXyuQCUUYb4If0LygirGPvYsbTi60DjU3KKPbFtbFrR1EGj%2FI
黑龙江｜少儿,http://[2409:8087:1a01:df::4035]/ottrrs.hl.chinamobile.com/PLTV/88888888/224/3221226304/1.m3u8
黑龙江｜少儿,http://[2409:8087:1a01:df::4077]/PLTV/88888888/224/3221225979/index.m3u8
黑龙江｜少儿,http://[2409:8087:1a01:df::4077]/ottrrs.hl.chinamobile.com/PLTV/88888888/224/3221226304/1.m3u8?icpid=88888888&from=1&hms_devid=1012&vqe=3
黑龙江｜少儿,http://ottrrs.hl.chinamobile.com/PLTV/88888888/224/3221226304/index.m3u8
黑龙江｜影视,http://[2409:8087:1a01:df::4035]/ottrrs.hl.chinamobile.com/PLTV/88888888/224/3221226298/1.m3u8
黑龙江｜影视,http://[2409:8087:1a01:df::4077]/PLTV/88888888/224/3221225973/index.m3u8
黑龙江｜影视,http://[2409:8087:1a01:df::4077]/ottrrs.hl.chinamobile.com/PLTV/88888888/224/3221226298/1.m3u8?icpid=88888888&from=1&hms_devid=1012&vqe=3
黑龙江｜影视,http://ottrrs.hl.chinamobile.com/PLTV/88888888/224/3221226298/index.m3u8
黑龙江｜文体,http://[2409:8087:1a01:df::4025]/ottrrs.hl.chinamobile.com/PLTV/88888888/224/3221226239/1.m3u8
黑龙江｜文体,http://ottrrs.hl.chinamobile.com/PLTV/88888888/224/3221226239/index.m3u8
黑龙江｜文体,http://[2409:8087:1a01:df::4077]/ottrrs.hl.chinamobile.com/PLTV/88888888/224/3221226239/1.m3u8?icpid=88888888&from=1&hms_devid=1012&vqe=3
黑龙江｜文体,http://[2409:8087:1a01:df::4077]/PLTV/88888888/224/3221225965/index.m3u8
黑龙江｜新闻,http://[2409:8087:1a01:df::4036]/ottrrs.hl.chinamobile.com/PLTV/88888888/224/3221226330/1.m3u8
黑龙江｜新闻,http://[2409:8087:1a01:df::4077]/ottrrs.hl.chinamobile.com/PLTV/88888888/224/3221226330/index.m3u8
黑龙江｜新闻,http://[2409:8087:1a01:df::4077]/ottrrs.hl.chinamobile.com/PLTV/88888888/224/3221226330/1.m3u8?icpid=88888888&from=1&hms_devid=1012&vqe=3
黑龙江｜新闻,http://ottrrs.hl.chinamobile.com/PLTV/88888888/224/3221226330/index.m3u8
黑龙江｜科教,http://[2409:8087:1a01:df::4025]/ottrrs.hl.chinamobile.com/PLTV/88888888/224/3221226242/1.m3u8
黑龙江｜科教,http://[2409:8087:1a01:df::4077]/PLTV/88888888/224/3221225994/index.m3u8
黑龙江｜科教,http://[2409:8087:1a01:df::4077]/ottrrs.hl.chinamobile.com/PLTV/88888888/224/3221226242/1.m3u8?icpid=88888888&from=1&hms_devid=1012&vqe=3
黑龙江｜科教,http://ottrrs.hl.chinamobile.com/PLTV/88888888/224/3221226242/index.m3u8
黑龙江｜都市,http://[2409:8087:1a01:df::4025]/ottrrs.hl.chinamobile.com/PLTV/88888888/224/3221226301/1.m3u8
黑龙江｜都市,http://[2409:8087:1a01:df::4077]/ottrrs.hl.chinamobile.com/PLTV/88888888/224/3221226301/index.m3u8
黑龙江｜都市,http://[2409:8087:1a01:df::4077]/ottrrs.hl.chinamobile.com/PLTV/88888888/224/3221226301/1.m3u8?icpid=88888888&from=1&hms_devid=1012&vqe=3
黑龙江｜都市,http://ottrrs.hl.chinamobile.com/PLTV/88888888/224/3221226301/index.m3u8
吉林｜延边卫视,http://live.ybtvyun.com/video/s10016-6f0dfd97912f/index.m3u8?zjild
吉林｜延边卫视,http://live.ybtvyun.com/video/s10006-44f040627ca1/index.m3u8?zjild
吉林｜延边-1,http://live.ybtvyun.com/video/s10016-af95004b6d1a/index.m3u8?zjild
吉林｜延边-2,http://live.ybtvyun.com/video/s10006-04819ee234a7/index.m3u8?zjild
黑龙江｜鹤岗新闻综合,http://[2409:8087:1a01:df::4060]/ottrrs.hl.chinamobile.com/PLTV/88888888/224/3221226534/index.m3u8
吉林｜延边朝鲜语综合,http://live.ybtvyun.com/video/s10016-19a16c47eb99/index.m3u8?zjild
吉林｜延边朝鲜语综合,http://live.ybtvyun.com/video/s10006-b571c289a478/index.m3u8?zjild
吉林｜通化县综合,http://stream5.jlntv.cn/thx/sd/live.m3u8
吉林｜通化县综合,http://stream5.jlntv.cn/thx/sd/live.m3u8?zjild
吉林｜龙井综合,http://stream8.jlntv.cn/ljtv/sd/live.m3u8?zjild
吉林｜德惠综合,http://stream11.jlntv.cn/dehuitv/sd/live.m3u8?zjild
吉林｜珲春新闻综合,http://stream8.jlntv.cn/hctv/sd/live.m3u8?zjild
吉林｜靖宇综合,http://stream8.jlntv.cn/jytv/sd/live.m3u8?zjild
吉林｜汪清综合,http://stream5.jlntv.cn/wq/sd/live.m3u8?zjild
黑龙江｜佳木斯新闻综合,http://[2409:8087:1a01:df::7005]/ottrrs.hl.chinamobile.com/PLTV/88888888/224/3221226451/index.m3u8
黑龙江｜齐齐哈尔新闻综合,http://[2409:8087:1a01:df::7005]/ottrrs.hl.chinamobile.com/PLTV/88888888/224/3221226437/index.m3u8
江苏｜如东新闻,http://rudong-tv-hls.cm.jstv.com/rudong-tv/rdxwzh.m3u8
江苏｜常熟民生经济,http://cstvplay.21cs.cn/cstv2/cstv2.m3u8
江苏｜常熟综合,http://cstvplay.21cs.cn/cstv1/cstv1.m3u8
黑龙江｜齐齐哈尔经济法制,http://[2409:8087:1a01:df::7005]/ottrrs.hl.chinamobile.com/PLTV/88888888/224/3221226555/index.m3u8
江苏｜苏州文化生活,http://tylive.kan0512.com/norecord/norecord_csztv3.m3u8
江苏｜苏州新闻综合,http://tylive.kan0512.com/norecord/norecord_csztv1.m3u8
江苏｜苏州生活资讯,http://tylive.kan0512.com/norecord/norecord_csztv5.m3u8
江苏｜苏州社会经济,http://tylive.kan0512.com/norecord/norecord_csztv2.m3u8
黑龙江｜双鸭山综合,http://[2409:8087:1a01:df::7005]/ottrrs.hl.chinamobile.com/PLTV/88888888/224/3221226529/index.m3u8
内蒙古｜巴彦淖尔新闻综合,http://mmitv.top/test/tianma.php?id=bynrzh
宁夏｜吴忠公共,http://live.kanwz.net/ggpd/sd/live.m3u8?zningxd
宁夏｜吴忠综合,http://live.kanwz.net/zhpd/sd/live.m3u8?zningxd
青海｜综合,http://lmt.scqstv.com/live1/live1.m3u8
青海｜经视,http://stream.qhbtv.com/qhsh/sd/live.m3u8?_upt=ba357f031594546763
青海｜经视,http://stream.qhbtv.com/qhsh/sd/live.m3u8?_upt=a7ec5e491648026933
青海｜经视,http://stream.qhbtv.com/qhsh/sd/live.m3u8
青海｜都市,http://stream.qhbtv.com/qhds/sd/live.m3u8?_upt=f868bafe1594546577
青海｜都市,http://stream.qhbtv.com/qhds/sd/live.m3u8
青海｜安多卫视,http://stream.qhbtv.com/adws/sd/live.m3u8
青海｜门源综合,http://livecdn.dmqhyadmin.com/hls/xjmenyuan.m3u8?zqinghd
青海｜民和综合,http://livecdn.dmqhyadmin.com/hls/xjminhe.m3u8?zqinghd
江西｜卫视,http://[2409:8087:1a01:df::4077]/PLTV/88888888/224/3221225935/index.m3u8
青海｜大通电视台,http://dtrmlive.qhdtrm.cn/testpush/sd/live.m3u8
青海｜兴海综合,http://lived.dmqhyadmin.com/xhzhpd/sd/live.m3u8
青海｜化隆综合,http://livecdn.dmqhyadmin.com/hls/xjhualong.m3u8
山东｜烟台公共,http://live.yantaitv.cn/live/e50f104a4ffe4a41b2217cbda534146f/d86092e69df94668b33390278b061700-1.m3u8?shandd
山东｜烟台公共,http://live.yantaitv.cn/live/e50f104a4ffe4a41b2217cbda534146f/d86092e69df94668b33390278b061700-1.m3u8
山东｜烟台影视,http://live.yantaitv.cn/live/e9f1d9045d474c31884d13fa4ffbbd16/a4a9b3704d854756907845107cc56129-1.m3u8
山东｜烟台新闻综合,http://live.yantaitv.cn/live/3e81a8879da44c5dadf3bd9c10468e1c/9b776d420ee4438199b7657c8eb88f07-1.m3u8?shandd
山东｜烟台新闻综合,http://live.yantaitv.cn/live/3e81a8879da44c5dadf3bd9c10468e1c/9b776d420ee4438199b7657c8eb88f07-1.m3u8
山东｜烟台经济科技,http://live.yantaitv.cn/live/27f84144e95a4652ae9e5c211b2a6b55/405f3e33ba384aa0a16014d0becd1261-1.m3u8
山东｜烟台经济科技,http://live.yantaitv.cn/live/27f84144e95a4652ae9e5c211b2a6b55/405f3e33ba384aa0a16014d0becd1261-1.m3u8?shandd
山西｜卫视,http://liveflash.sxrtv.com/live/sxwshd.m3u8?sub_m3u8=true&edge_slice=true
山西｜卫视,http://80ec27bff7f9ae80b961481da488e302.livehwc3.cn/liveflash.sxrtv.com/live/sxwshd.m3u8?sub_m3u8=true&edge_slice=true&user_session_id=d04ce01474da4193c8863ea281ec4759
山西｜经济,http://liveflash.sxrtv.com/live/sxfinance.m3u8?sub_m3u8=true&edge_slice=true
山西｜社会与法治,http://liveflash.sxrtv.com/live/sxedu.m3u8?sub_m3u8=true&edge_slice=true
山西｜文体生活,http://liveflash.sxrtv.com/live/sxpublic.m3u8?sub_m3u8=true&edge_slice=true
山西｜影视,http://liveflash.sxrtv.com/live/sxfilm.m3u8?sub_m3u8=true&edge_slice=true
山西｜黄河,http://liveflash.sxrtv.com/live/huanghe.m3u8?sub_m3u8=true&edge_slice=true
山西｜吉县新闻综合,http://jxlive.jxrmtzx.com:8091/live/xwzh.m3u8
山西｜吉县新闻综合,http://jxlive.jxrmtzx.com:8091/live/xwzh.m3u8?zshanxd
山西｜定襄综合,http://lbyzztfe.live.sxmty.com/live/hls/645ff4c60e0a49f0a203abbd73dd8be9/0720e665f10f48e98c9639f4f492fb4a-1.m3u8?zshanxd
山西｜晋中公共频道,http://jzlive.jztvnews.com:90/live/jzgg.m3u8
山西｜晋中新闻,http://jzlive.jztvnews.com:90/live/jzzh.m3u8
山西｜晋中新闻,http://jzlive.jztvnews.com:90/live/jzzh.m3u8?zshanxd
山西｜晋中新闻,http://jzlive.jztvnews.com:83/live/mount_for_ts/jzzh.m3u8?zshanxd
山西｜灵石新闻综合,https://live-stream.lsxrmtzx.com/live/video.m3u8?zshanxd
山西｜襄垣电视,http://video.xyxrmt.com/lsdream/2MAgsgb/1000/live.m3u8?zshanxd
山西｜长子综合,http://zzlive.zzc-media.com:8092/live/xwzh.m3u8?zshanxd
山西｜长子综合,http://zzlive.zzc-media.com:8092/live/xwzh.m3u8
四川｜科教,http://182.150.115.21:8030/pcgacg/pcgacg_0.m3u8
四川｜万源新闻综合,http://live.wanyuannews.com/wytv/hd/live.m3u8?zsicd
四川｜乐至综合,http://rmlive.lzxrmtzx.com/live1/live1.m3u8
四川｜乐至综合,http://rmlive.lzxrmtzx.com/live1/live1.m3u8?zsicd
四川｜乐至综合,http://175.155.106.72:89/live1/live1.m3u8
四川｜乐至综合,http://175.155.106.72:89/live1/live1.m3u8?zsicd
四川｜卫视,http://[2409:8087:1a01:df::4077]/PLTV/88888888/224/3221225970/index.m3u8
四川｜利州,http://tvfile.lzgbdst.com/nmip-media/channellive/channel106876/playlist.m3u8
四川｜利州,http://tvfile.lzgbdst.com/nmip-media/channellive/channel106876/playlist.m3u8?zsicd
四川｜巴中综合,http://ocj2.kksmg.com/ocj1/ocj1.m3u8
四川｜康定,http://kdfile.ganzitv.com/nmip-media/channellive/channel100663/playlist.m3u8
四川｜康定,http://m3u8-kd.channel.ganzitv.com/nmip-media-yajiang/channellive/channel100663/playlist.m3u8?zsicd
四川｜康定,http://m3u8-kd.channel.ganzitv.com/nmip-media-yajiang/channellive/channel100663/playlist.m3u8?
四川｜康定,http://m3u8-kd.channel.ganzitv.com/nmip-media-yajiang/channellive/channel100663/playlist.m3u8
四川｜松潘新闻综合,http://live.spccmc.com:90/live/spxwzh.m3u8?zsicd
四川｜松潘新闻综合,http://live.spccmc.com:90/live/spxwzh.m3u8
四川｜汶川新闻综合,http://live.iwcmt.cn:90/live/zhxw.m3u8
四川｜泸县新闻综合,http://lxfile.lxxcb.cn/nmip-media/channellive/channel103799/playlist.m3u8?zsicd
四川｜汶川新闻综合,http://live.iwcmt.cn:90/live/zhxw.m3u8?zsicd
四川｜泸州公共,http://m3u8.channel.luzhoubs.com/nmip-media/channellive/channel102221/playlist.m3u8
四川｜泸州新闻,http://m3u8.channel.luzhoubs.com/nmip-media/channellive/channel106011/playlist.m3u8
四川｜泸州科教,http://file.luzhoubs.com/nmip-media/channellive/channel103074/playlist.m3u8
四川｜泸州科教,http://m3u8.channel.luzhoubs.com/nmip-media/channellive/channel103074/playlist.m3u8
四川｜洪雅新闻综合,http://117.172.215.250:8083/videos/live/35/39/GQVbrgob5CGJM/GQVbrgob5CGJM.M3U8
四川｜泸州综合,http://lztv.gy315.com:18080/live/lztv.m3u8
四川｜营山电视台,http://file.ysxtv.cn/cms/videos/nmip-media/channellive/channel4/playlist.m3u8?zsicd
四川｜营山电视台,http://file.ysxtv.cn/cms/videos/nmip-media/channellive/channel4/playlist.m3u8
四川｜蓬安新闻综合,http://palive.patv123.com:8091/live/xwpd_800K.m3u8?zsicd
四川｜金川新闻综合,http://live.jinchuanrmt.com:90/live/zhxw.m3u8
四川｜金川新闻综合,http://live.jinchuanrmt.com:90/live/zhxw.m3u8?zsicd
四川｜长宁综合,http://cnpull.sccnfb.com/live/123456.m3u8?zsicd
四川｜青神综合,http://lmt.scqstv.com/live1/live1.m3u8?zsicd
四川｜马尔康综合,http://live.zmmek.com:90/live/zhxw.m3u8?zsicd
四川｜西青新闻综合,http://221.238.209.44:81/hls/live1.m3u8?ztianjd
四川｜黑水新闻综合,http://live.schstv.com:90/live/xwzh.m3u8
新疆｜奎屯汉语综合,http://218.84.12.186:8001/hls/main/playlist.m3u8?zxinjd
新疆｜奎屯汉语综合,http://218.84.12.186:8001/hls/main/playlist.m3u8
新疆｜巴音郭楞州,http://file.loulannews.cn/nmip-media/channellive/channel101476/playlist.m3u8
新疆｜巴音郭楞州,http://file.loulannews.cn/nmip-media/channellive/channel104199/playlist.m3u8
新疆｜巴音郭楞州,http://file.loulannews.cn/nmip-media/channellive/channel103824/playlist.m3u8
新疆｜巴音郭楞州,http://file.loulannews.cn/nmip-media/channellive/channel102433/playlist.m3u8
天津｜卫视,http://[2409:8087:1a01:df::4077]/PLTV/88888888/224/3221225972/index.m3u8
新疆｜玛纳斯综合,http://218.84.127.245:1026/hls/main1/playlist.m3u8?zxinjd
云南｜文山州新闻综合,http://m3u8.channel.wsrtv.com.cn/cms/videos/nmip-media/channellive/channel7/playlist.m3u8?zyund
云南｜贡山,http://livebroadcast.ccwb.cn/live/w1609121671179943.m3u8
云南｜麻栗坡,http://m3u8.channel.wsrtv.com.cn/cms/videos/nmip-media/channellive/channel18/playlist.m3u8?zyund
云南｜麻栗坡,http://m3u8.channel.wsrtv.com.cn/cms/videos/nmip-media/channellive/channel18/playlist.m3u8
云南｜绥江综合,http://livebroadcast.ccwb.cn/live/w1615172384810938.m3u8?zyund
云南｜贡山综合,http://livebroadcast.ccwb.cn/live/w1609121671179943.m3u8?zyund
浙江｜钱江频道,http://ali-m-l.cztv.com/channels/lantian/channel02/1080p.m3u8
浙江｜经济生活,http://ali-m-l.cztv.com/channels/lantian/channel03/1080p.m3u8
云南｜福贡综合,http://livebroadcast.ccwb.cn/live/w1612505860303999.m3u8?zyund
浙江｜教科影视,http://ali-m-l.cztv.com/channels/lantian/channel04/1080p.m3u8
浙江｜民生休闲,http://ali-m-l.cztv.com/channels/lantian/channel06/1080p.m3u8
浙江｜公共新闻,http://ali-m-l.cztv.com/channels/lantian/channel07/1080p.m3u8
浙江｜杭州余杭平安,http://l.cztvcloud.com/channels/lantian/SXyuhang2/720p.m3u8
浙江｜杭州余杭未来,http://l.cztvcloud.com/channels/lantian/SXyuhang3/720p.m3u8
浙江｜杭州余杭综合,http://l.cztvcloud.com/channels/lantian/SXyuhang1/720p.m3u8
浙江｜宁波象山综合,http://l.cztvcloud.com/channels/lantian/SXxiangshan1/720p.m3u8
浙江｜宁波象山综合,http://l.cztvcloud.com/channels/lantian/SXxiangshan1/720p.m3u8?zzhed
浙江｜宁波余姚综合,http://l.cztvcloud.com/channels/lantian/SXyuyao1/720p.m3u8?zzhed
浙江｜宁波余姚综合,http://l.cztvcloud.com/channels/lantian/SXyuyao1/720p.m3u8
浙江｜上虞新闻综合,http://l.cztvcloud.com/channels/lantian/SXshangyu1/720p.m3u8?zzhed
浙江｜上虞文化影院,http://l.cztvcloud.com/channels/lantian/SXshangyu2/720p.m3u8?zzhed
浙江｜上虞新商都,http://l.cztvcloud.com/channels/lantian/SXshangyu3/720p.m3u8
浙江｜上虞新商都,http://l.cztvcloud.com/channels/lantian/SXshangyu3/720p.m3u8?zzhed
浙江｜丽水云和综合,http://l.cztvcloud.com/channels/lantian/SXyunhe1/720p.m3u8
浙江｜丽水庆元综合,http://l.cztvcloud.com/channels/lantian/SXqingyuan1/720p.m3u8
浙江｜丽水松阳综合,http://l.cztvcloud.com/channels/lantian/SXsongyang1/720p.m3u8
浙江｜丽水缙云综合,http://l.cztvcloud.com/channels/lantian/SXjinyun1/720p.m3u8
浙江｜丽水遂昌综合,http://l.cztvcloud.com/channels/lantian/SXsuichang1/720p.m3u8
浙江｜丽水青田综合,http://l.cztvcloud.com/channels/lantian/SXqingtian1/720p.m3u8
浙江｜丽水龙泉综合,http://l.cztvcloud.com/channels/lantian/SXlongquan1/720p.m3u8
浙江｜云和新闻综合,http://l.cztvcloud.com/channels/lantian/SXyunhe1/720p.m3u8?zzhed
浙江｜兰溪新闻综合,http://l.cztvcloud.com/channels/lantian/SXlanxi1/720p.m3u8?zzhed
浙江｜宁波余姚生活,http://l.cztvcloud.com/channels/lantian/SXyuyao2/720p.m3u8
浙江｜嵊州公共新闻综合,http://l.cztvcloud.com/channels/lantian/SXshengzhou1/720p.m3u8?zzhed
浙江｜平湖公共新闻综合,http://l.cztvcloud.com/channels/lantian/SXpinghu1/720p.m3u8?zzhed
浙江｜平湖新闻综合,http://l.cztvcloud.com/channels/lantian/SXpinghu1/720p.m3u8
浙江｜平湖民生休闲,http://l.cztvcloud.com/channels/lantian/SXpinghu2/720p.m3u8?zzhed
浙江｜平湖民生休闲,http://l.cztvcloud.com/channels/lantian/SXpinghu2/720p.m3u8
浙江｜庆元综合频道,http://l.cztvcloud.com/channels/lantian/SXqingyuan1/720p.m3u8?zzhed
浙江｜开化新闻综合,http://l.cztvcloud.com/channels/lantian/SXkaihua1/720p.m3u8?zzhed
浙江｜开化国家公园,http://l.cztvcloud.com/channels/lantian/SXkaihua2/720p.m3u8?zzhed
浙江｜文成二套,http://l.cztvcloud.com/channels/lantian/SXwencheng2/720p.m3u8
浙江｜文成综合频道,http://l.cztvcloud.com/channels/lantian/SXwencheng1/720p.m3u8?zzhed
浙江｜文成综合频道,http://l.cztvcloud.com/channels/lantian/SXwencheng1/720p.m3u8
浙江｜普陀新闻综合,http://l.cztvcloud.com/channels/lantian/SXputuo1/720p.m3u8
浙江｜普陀新闻综合,http://l.cztvcloud.com/channels/lantian/SXputuo1/720p.m3u8?zzhed
浙江｜松阳综合频道,http://l.cztvcloud.com/channels/lantian/SXsongyang1/720p.m3u8?zzhed
浙江｜永嘉新闻综合,http://l.cztvcloud.com/channels/lantian/SXyongjia1/720p.m3u8?zzhed
浙江｜温州永嘉综合,http://l.cztvcloud.com/channels/lantian/SXyongjia1/720p.m3u8
浙江｜绍兴上虞影视,http://l.cztvcloud.com/channels/lantian/SXshangyu2/720p.m3u8
浙江｜绍兴上虞综合,http://l.cztvcloud.com/channels/lantian/SXshangyu1/720p.m3u8
浙江｜绍兴公共频道,http://live.shaoxing.com.cn/video/s10001-sxtv2/index.m3u8?zzhed
浙江｜绍兴公共频道,http://live.shaoxing.com.cn/video/s10001-sxtv2/index.m3u8
浙江｜绍兴新闻综合,http://live.shaoxing.com.cn/video/s10001-sxhb/index.m3u8
浙江｜绍兴新闻综合,http://live.shaoxing.com.cn/video/s10001-sxhb/index.m3u8?zzhed
浙江｜绍兴嵊州综合,http://l.cztvcloud.com/channels/lantian/SXshengzhou1/720p.m3u8
浙江｜绍兴文化影视,http://live.shaoxing.com.cn/video/s10001-sxtv3/index.m3u8
浙江｜绍兴文化影视,http://live.shaoxing.com.cn/video/s10001-sxtv3/index.m3u8?zzhed
浙江｜缙云综合频道,http://l.cztvcloud.com/channels/lantian/SXjinyun1/720p.m3u8?zzhed
浙江｜苍南新闻综合,http://l.cztvcloud.com/channels/lantian/SXcangnan1/720p.m3u8
浙江｜苍南新闻综合,http://l.cztvcloud.com/channels/lantian/SXcangnan1/720p.m3u8?zzhed
浙江｜萧山新闻综合,http://l.cztvcloud.com/channels/lantian/SXxiaoshan1/720p.m3u8
浙江｜萧山新闻综合,http://l.cztvcloud.com/channels/lantian/SXxiaoshan1/720p.m3u8?zzhed
浙江｜萧山生活频道,http://l.cztvcloud.com/channels/lantian/SXxiaoshan2/720p.m3u8
浙江｜萧山生活频道,http://l.cztvcloud.com/channels/lantian/SXxiaoshan2/720p.m3u8?zzhed
浙江｜衢州开化综合,http://l.cztvcloud.com/channels/lantian/SXkaihua1/720p.m3u8
浙江｜衢州衢江综合,http://l.cztvcloud.com/channels/lantian/SXqujiang1/720p.m3u8
浙江｜衢州龙游生活,https://l.cztvcloud.com/channels/lantian/SXlongyou2/720p.m3u8
浙江｜衢州龙游综合,https://l.cztvcloud.com/channels/lantian/SXlongyou1/720p.m3u8
浙江｜诸暨新闻综合,http://l.cztvcloud.com/channels/lantian/SXzhuji3/720p.m3u8
浙江｜遂昌综合频道,http://l.cztvcloud.com/channels/lantian/SXsuichang1/720p.m3u8?zzhed
浙江｜金华东阳综合,http://l.cztvcloud.com/channels/lantian/SXdongyang1/720p.m3u8
浙江｜金华兰溪综合,http://l.cztvcloud.com/channels/lantian/SXlanxi1/720p.m3u8
浙江｜青田电视台,http://l.cztvcloud.com/channels/lantian/SXqingtian1/720p.m3u8?zzhed
浙江｜龙泉公共新闻综合,http://l.cztvcloud.com/channels/lantian/SXlongquan1/720p.m3u8?zzhed
浙江｜龙游新闻综合,http://l.cztvcloud.com/channels/lantian/SXlongyou1/720p.m3u8
浙江｜龙游新闻综合,http://l.cztvcloud.com/channels/lantian/SXlongyou1/720p.m3u8?zzhed
浙江｜龙游生活娱乐,http://l.cztvcloud.com/channels/lantian/SXlongyou2/720p.m3u8?zzhed
浙江｜龙游生活娱乐,http://l.cztvcloud.com/channels/lantian/SXlongyou2/720p.m3u8


咪咕直播,#genre#
咪咕直播-1,http://[2409:8087:1a01:df::4023]/PLTV/88888888/224/3221225611/index.m3u8
咪咕直播4K-1,http://[2409:8087:1a01:df::4001]/PLTV/88888888/224/3221225655/index.m3u8
咪咕直播-4,http://[2409:8087:1a01:df::4017]/PLTV/88888888/224/3221225619/index.m3u8
咪咕直播-5,http://[2409:8087:1a01:df::4058]/PLTV/88888888/224/3221225620/index.m3u8
咪咕直播-6,http://[2409:8087:1a01:df::4015]/PLTV/88888888/224/3221225639/index.m3u8
咪咕直播-9,http://[2409:8087:1a01:df::4002]/PLTV/88888888/224/3221225645/index.m3u8
咪咕直播-7,http://[2409:8087:1a01:df::4015]/PLTV/88888888/224/3221225641/index.m3u8
咪咕直播-8,http://[2409:8087:1a01:df::4011]/PLTV/88888888/224/3221225643/index.m3u8
咪咕直播-10,http://[2409:8087:1a01:df::4016]/PLTV/88888888/224/3221225647/index.m3u8
咪咕直播-11,http://[2409:8087:1a01:df::4022]/PLTV/88888888/224/3221225648/index.m3u8
咪咕直播-12,http://[2409:8087:1a01:df::4003]/PLTV/88888888/224/3221225649/index.m3u8
咪咕直播-13,http://[2409:8087:1a01:df::4003]/PLTV/88888888/224/3221225650/index.m3u8
咪咕直播-14,http://[2409:8087:1a01:df::4014]/PLTV/88888888/224/3221225652/index.m3u8
咪咕直播-15,http://[2409:8087:1a01:df::4013]/PLTV/88888888/224/3221225653/index.m3u8
咪咕直播-16,http://[2409:8087:1a01:df::4017]/PLTV/88888888/224/3221225654/index.m3u8
咪咕直播-17,http://[2409:8087:1a01:df::4019]/PLTV/88888888/224/3221225658/index.m3u8
咪咕直播-18,http://[2409:8087:1a01:df::4012]/PLTV/88888888/224/3221225660/index.m3u8
咪咕直播-19,http://[2409:8087:1a01:df::4023]/PLTV/88888888/224/3221225662/index.m3u8
咪咕直播-20,http://[2409:8087:1a01:df::4062]/PLTV/88888888/224/3221225733/index.m3u8
咪咕直播-21,http://[2409:8087:1a01:df::4048]/PLTV/88888888/224/3221225735/index.m3u8
咪咕直播-22,http://[2409:8087:1a01:df::4025]/PLTV/88888888/224/3221225737/index.m3u8
咪咕直播-23,http://[2409:8087:1a01:df::4074]/PLTV/88888888/224/3221225739/index.m3u8
咪咕直播-28,http://[2409:8087:1a01:df::4030]/PLTV/88888888/224/3221225754/index.m3u8
咪咕直播-29,http://[2409:8087:1a01:df::4025]/PLTV/88888888/224/3221225756/index.m3u8
咪咕直播-31,http://[2409:8087:1a01:df::4025]/PLTV/88888888/224/3221225760/index.m3u8
咪咕直播-30,http://[2409:8087:1a01:df::4077]/PLTV/88888888/224/3221225758/index.m3u8
咪咕直播-38,http://[2409:8087:1a01:df::4028]/PLTV/88888888/224/3221225897/index.m3u8
咪咕直播-37,http://[2409:8087:1a01:df::4002]/PLTV/88888888/224/3221225895/index.m3u8
咪咕直播-39,http://[2409:8087:1a01:df::4061]/PLTV/88888888/224/3221225899/index.m3u8
咪咕直播-40,http://[2409:8087:1a01:df::4009]/PLTV/88888888/224/3221225901/index.m3u8
咪咕直播-41,http://[2409:8087:1a01:df::4023]/PLTV/88888888/224/3221225903/index.m3u8
咪咕直播-43,http://[2409:8087:1a01:df::4051]/PLTV/88888888/224/3221225905/index.m3u8
咪咕直播-45,http://[2409:8087:1a01:df::4055]/PLTV/88888888/224/3221225910/index.m3u8
咪咕直播-46,http://[2409:8087:1a01:df::4076]/PLTV/88888888/224/3221225912/index.m3u8
咪咕直播-47,http://[2409:8087:1a01:df::4027]/PLTV/88888888/224/3221225914/index.m3u8
咪咕直播-48,http://[2409:8087:1a01:df::4076]/PLTV/88888888/224/3221226027/index.m3u8
咪咕直播-49,http://[2409:8087:1a01:df::4068]/PLTV/88888888/224/3221226031/index.m3u8
咪咕直播-50,http://[2409:8087:1a01:df::4062]/PLTV/88888888/224/3221226046/index.m3u8
咪咕直播-51,http://[2409:8087:1a01:df::4041]/PLTV/88888888/224/3221226053/index.m3u8
咪咕直播-52,http://[2409:8087:1a01:df::404d]/ottrrs.hl.chinamobile.com/PLTV/88888888/224/3221226124/index.m3u8
咪咕直播-53,http://[2409:8087:1a01:df::403b]/ottrrs.hl.chinamobile.com/PLTV/88888888/224/3221226147/index.m3u8
咪咕直播-54,http://[2409:8087:1a01:df::4033]/ottrrs.hl.chinamobile.com/PLTV/88888888/224/3221226398/index.m3u8
咪咕直播-55,http://[2409:8087:1a01:df::402a]/ottrrs.hl.chinamobile.com/PLTV/88888888/224/3221226469/index.m3u8
咪咕直播-56,http://[2409:8087:1a01:df::4046]/ottrrs.hl.chinamobile.com/PLTV/88888888/224/3221226472/index.m3u8

NewTV直播,#genre#
Love Nrture 4K,https://d18dyiwu97wm6q.cloudfront.net/playlist2160p.m3u8
NewTV超级体育,http://[2409:8087:1a01:df::7005]:80/ottrrs.hl.chinamobile.com/PLTV/88888888/224/3221225715/index.m3u8
NewTV超级体育,http://ottrrs.hl.chinamobile.com/PLTV/88888888/224/3221225715/index.m3u8
NewTV超级电影,http://[2409:8087:1a01:df::7005]:80/ottrrs.hl.chinamobile.com/PLTV/88888888/224/3221225717/index.m3u8
NewTV超级电影,http://ottrrs.hl.chinamobile.com/PLTV/88888888/224/3221225717/index.m3u8
NewTV超级电视剧,http://ottrrs.hl.chinamobile.com/PLTV/88888888/224/3221225716/index.m3u8
NewTV超级电视剧,http://[2409:8087:1a01:df::7005]:80/ottrrs.hl.chinamobile.com/PLTV/88888888/224/3221225716/index.m3u8
NewTV东北热剧,http://ottrrs.hl.chinamobile.com/PLTV/88888888/224/3221225741/index.m3u8
NewTV东北热剧,http://[2409:8087:1a01:df::7005]:80/ottrrs.hl.chinamobile.com/PLTV/88888888/224/3221225741/index.m3u8
NewTV欢乐剧场,http://ottrrs.hl.chinamobile.com/PLTV/88888888/224/3221225742/index.m3u8
NewTV欢乐剧场,http://[2409:8087:1a01:df::7005]:80/ottrrs.hl.chinamobile.com/PLTV/88888888/224/3221225742/index.m3u8
NewTV海外剧场,http://ottrrs.hl.chinamobile.com/PLTV/88888888/224/3221225671/index.m3u8
NewTV中国功夫,http://ottrrs.hl.chinamobile.com/PLTV/88888888/224/3221225681/index.m3u8
NewTV军事评论,http://ottrrs.hl.chinamobile.com/PLTV/88888888/224/3221225668/index.m3u8
NewTV军旅剧场,http://ottrrs.hl.chinamobile.com/PLTV/88888888/224/3221225676/index.m3u8
NewTV农业致富,http://ottrrs.hl.chinamobile.com/PLTV/88888888/224/3221225683/index.m3u8
NewTV动作电影,http://ottrrs.hl.chinamobile.com/PLTV/88888888/224/3221225661/index.m3u8
NewTV家庭剧场,http://ottrrs.hl.chinamobile.com/PLTV/88888888/224/3221225677/index.m3u8
NewTV怡伴健康,http://ottrrs.hl.chinamobile.com/PLTV/88888888/224/3221225673/index.m3u8
NewTV惊悚悬疑,http://ottrrs.hl.chinamobile.com/PLTV/88888888/224/3221225665/index.m3u8
NewTV明星大片,http://ottrrs.hl.chinamobile.com/PLTV/88888888/224/3221225664/index.m3u8
NewTV武搏世界,http://ottrrs.hl.chinamobile.com/PLTV/88888888/224/3221225680/index.m3u8
NewTV潮妈辣婆,http://ottrrs.hl.chinamobile.com/PLTV/88888888/224/3221225685/index.m3u8
NewTV爱情喜剧,http://ottrrs.hl.chinamobile.com/PLTV/88888888/224/3221225669/index.m3u8
NewTV精品体育,http://ottrrs.hl.chinamobile.com/PLTV/88888888/224/3221225674/index.m3u8
NewTV精品大剧,http://ottrrs.hl.chinamobile.com/PLTV/88888888/224/3221225670/index.m3u8
NewTV精品纪录,http://ottrrs.hl.chinamobile.com/PLTV/88888888/224/3221225672/index.m3u8
NewTV精品萌宠,http://ottrrs.hl.chinamobile.com/PLTV/88888888/224/3221226505/index.m3u8
NewTV金牌综艺,http://ottrrs.hl.chinamobile.com/PLTV/88888888/224/3221225666/index.m3u8
Toonth电影,http://api.toonamiaftermath.com:3000/movies/playlist.m3u8
Toonth电影,http://api.toonamiaftermath.com:3000/movies/playlist.m3u8
NewTV超级综艺,http://ottrrs.hl.chinamobile.com/PLTV/88888888/224/3221225714/index.m3u8


景区直播,#genre#
直播中国,https://gcalic.v.myalicdn.com/gc/wgw05_1/index.m3u8?contentid=2820180516001
新疆天山(定海神针),http://gctxyc.liveplay.myqcloud.com/gc/xjtcdhsz_1/index.m3u8
黄花城水长城02,http://gctxyc.liveplay.myqcloud.com/gc/wgw02_1/index.m3u8
直播中国,https://gcalic.v.myalicdn.com/gc/wgw05_1/index.m3u8?contentid=2820180516001
湖南张家界水绕四门,https://gcalic.v.myalicdn.com/gc/zjjsrsm_1/index.m3u8
湖南张家界将军列队,https://gcalic.v.myalicdn.com/gc/zjjjjdl_1/index.m3u8
湖南张家界阿凡达悬浮山,https://gcalic.v.myalicdn.com/gc/zjjafdxfs_1/index.m3u8
湖南张家界迷魂台,https://gcalic.v.myalicdn.com/gc/zjjmht_1/index.m3u8
湖南张家界宝峰湖,https://gcalic.v.myalicdn.com/gc/zjjbfh_1/index.m3u8
湖南张家界御笔峰,https://gcalic.v.myalicdn.com/gc/zjjybf_1/index.m3u8
四川峨眉山云海日出,https://gcalic.v.myalicdn.com/gc/emsarm_1/index.m3u8
四川峨眉山远眺贡嘎山,https://gcalic.v.myalicdn.com/gc/emsyh_1/index.m3u8
四川峨眉山贤菩萨铜像,https://gcalic.v.myalicdn.com/gc/emspxps_1/index.m3u8
四川峨眉山远眺万佛顶,https://gcalic.v.myalicdn.com/gc/emswfs_1/index.m3u8
浙江杭州云栖小镇,https://gcalic.v.myalicdn.com/gc/wygjt2_1/index.m3u8
浙江杭州云栖小镇,https://gcalic.v.myalicdn.com/gc/wygjt2_1/index.m3u8
重庆石柱华溪村,https://gcalic.v.myalicdn.com/gc/jsh02_1/index.m3u8
安徽金寨大湾村,https://gcalic.v.myalicdn.com/gc/szgk01_1/index.m3u8
山西苛岚宋家沟新村,https://gcalic.v.myalicdn.com/gc/wysdhpcy_1/index.m3u8
河北张北德胜村,https://gcalic.v.myalicdn.com/gc/pygc01_1/index.m3u8
河北张北德胜村,https://gcalic.v.myalicdn.com/gc/pygc01_1/index.m3u8
新疆天山(海西平台),https://gcalic.v.myalicdn.com/gc/xjtchxpt_1/index.m3u8
新疆天山(定海神针),https://gcalic.v.myalicdn.com/gc/xjtcdhsz_1/index.m3u8
新疆天山(定海神针),https://gcalic.v.myalicdn.com/gc/xjtcdhsz_1/index.m3u8
新疆天山(马牙山),https://gcalic.v.myalicdn.com/gc/xjtcmys_1/index.m3u8
新疆天山(灯杆山),https://gcalic.v.myalicdn.com/gc/xjtcdgs_1/index.m3u8
湖南张家界天门山西线玻璃栈道,https://gcalic.v.myalicdn.com/gc/tms05_1/index.m3u8
湖南张家界天门山天门洞,https://gcalic.v.myalicdn.com/gc/tmstmd01_1/index.m3u8
湖南张家界天门山天空步道,https://gcalic.v.myalicdn.com/gc/tms02_1/index.m3u8
湖南张家界天门山天空步道,https://gcalic.v.myalicdn.com/gc/tms02_1/index.m3u8
湖南张家界天门山云梦仙顶,https://gcalic.v.myalicdn.com/gc/tms04_1/index.m3u8
厦门鼓浪屿,https://gcalic.v.myalicdn.com/gc/gly01_1/index.m3u8
厦门鼓浪屿,https://gcalic.v.myalicdn.com/gc/gly01_1/index.m3u8
广西玉林大容山莲花山顶,https://gcalic.v.myalicdn.com/gc/drs01_1/index.m3u8
八里沟风景区桃花湾瀑布,https://gcalic.v.myalicdn.com/gc/blg05_1/index.m3u8
八里沟风景区天界山玻璃栈道,https://gcalic.v.myalicdn.com/gc/blg03_1/index.m3u8
汶川映秀新城,https://gcalic.v.myalicdn.com/gc/wcyxxc01_1/index.m3u8
十八洞村,https://gcalic.v.myalicdn.com/gc/sbd01_1/index.m3u8
趵突泉,https://gcalic.v.myalicdn.com/gc/btq01_1/index.m3u8
安徽池州九华山风景区拜经台,https://gcalic.v.myalicdn.com/gc/jhs02_1/index.m3u8
安徽池州九华山风景区九华山,https://gcalic.v.myalicdn.com/gc/jhs05_1/index.m3u8
安徽池州九华山风景区九华山,https://gcalic.v.myalicdn.com/gc/jhs05_1/index.m3u8
安徽池州九华山风景区花台,https://gcalic.v.myalicdn.com/gc/jhs01_1/index.m3u8
江苏徐州云龙湖风景区云龙山观景台西,https://gcalic.v.myalicdn.com/gc/ylh04_1/index.m3u8
江苏徐州云龙湖风景区云龙山观景台南,https://gcalic.v.myalicdn.com/gc/ylh03_1/index.m3u8
浙江杭州千岛湖,https://gcalic.v.myalicdn.com/gc/caqdh_1/index.m3u8
浙江杭州千岛湖,https://gcalic.v.myalicdn.com/gc/caqdh_1/index.m3u8
南京玄武湖公园,https://gcalic.v.myalicdn.com/gc/xwh01_1/index.m3u8
云南丽江玉湖,https://gcalic.v.myalicdn.com/gc/hkylxs02_1/index.m3u8
云南丽江蓝月谷,https://gcalic.v.myalicdn.com/gc/ylxs12_1/index.m3u8
云南丽江一滴水过丽江,https://gcalic.v.myalicdn.com/gc/hkylxs04_1/index.m3u8
云南丽江玉龙山草甸,https://gcalic.v.myalicdn.com/gc/hkylxs06_1/index.m3u8
云南丽江白水台,https://gcalic.v.myalicdn.com/gc/hkylxs07_1/index.m3u8
云南丽江蓝月谷中游湖面,https://gcalic.v.myalicdn.com/gc/hkylxs08_1/index.m3u8
云南丽江高尔夫,https://gcalic.v.myalicdn.com/gc/hkylxs09_1/index.m3u8
云南丽江冰川,https://gcalic.v.myalicdn.com/gc/hkylxs05_1/index.m3u8
云南丽江印象实景,https://gcalic.v.myalicdn.com/gc/hkylxs01_1/index.m3u8
江苏南京牛首山,https://gcalic.v.myalicdn.com/gc/nss01_1/index.m3u8
福建漳州六鳌翡翠湾,https://gcalic.v.myalicdn.com/gc/fcw01_1/index.m3u8
福建漳州醉美沙滩翡翠湾,https://gcalic.v.myalicdn.com/gc/fcw03_1/index.m3u8
天津之眼,https://gcalic.v.myalicdn.com/gc/tjhh01_1/index.m3u8
天津之眼,https://gcalic.v.myalicdn.com/gc/tjhh01_1/index.m3u8
四川西昌邛海景区,https://gcalic.v.myalicdn.com/gc/xcqh01_1/index.m3u8
普陀山,https://gcalic.v.myalicdn.com/gc/pts01_1/index.m3u8
浙江舟山东极岛,https://gcalic.v.myalicdn.com/gc/djd01_1/index.m3u8
河南郑东新区千玺广场,https://gcalic.v.myalicdn.com/gc/zdxq01_1/index.m3u8
四川四姑娘山幺妹峰,https://gcalic.v.myalicdn.com/gc/sgns01_1/index.m3u8
四川四姑娘山隆珠措,https://gcalic.v.myalicdn.com/gc/sgns02_1/index.m3u8
宁夏沙坡头长河落日,https://gcalic.v.myalicdn.com/gc/nxsptdmgychlr_1/index.m3u8
宁夏沙坡头大漠孤烟,https://gcalic.v.myalicdn.com/gc/nxsptdmgy_1/index.m3u8
丽江古城大研花巷观景,https://gcalic.v.myalicdn.com/gc/ljgcdyhxgjt_1/index.m3u8
丽江古城大研花巷观景,https://gcalic.v.myalicdn.com/gc/ljgcdyhxgjt_1/index.m3u8
丽江古城大水车,https://gcalic.v.myalicdn.com/gc/ljgcdsc_1/index.m3u8
丽江古城万古楼遥望玉龙山,https://gcalic.v.myalicdn.com/gc/ljgcwglytylxs_1/index.m3u8
狮子山鸟瞰丽江古城,https://gcalic.v.myalicdn.com/gc/ljgcszsnkgc_1/index.m3u8
云台山小寨沟,https://gcalic.v.myalicdn.com/gc/ytsxzg_1/index.m3u8
云台山百家岩,https://gcalic.v.myalicdn.com/gc/ytsbjy_1/index.m3u8
云台山红石峡,https://gcalic.v.myalicdn.com/gc/ytshsx_1/index.m3u8
云台山茱萸峰,https://gcalic.v.myalicdn.com/gc/ytszyf_1/index.m3u8
云台山茱萸峰,https://gcalic.v.myalicdn.com/gc/ytszyf_1/index.m3u8
雪乡梦幻家园,https://gcalic.v.myalicdn.com/gc/mdjxxmhjyxj_1/index.m3u8
雪乡梦幻家园观景台,https://gcalic.v.myalicdn.com/gc/mdjxxmhjygjt_1/index.m3u8
雪乡梦幻家园观景台,https://gcalic.v.myalicdn.com/gc/mdjxxmhjygjt_1/index.m3u8
雪乡大石碑,https://gcalic.v.myalicdn.com/gc/mdjxxdsb_1/index.m3u8
乌镇蓝印花布,https://gcalic.v.myalicdn.com/gc/zjwzlyhb_1/index.m3u8
乌镇西市河,https://gcalic.v.myalicdn.com/gc/zjwzbblh_1/index.m3u8
乌镇西市河,https://gcalic.v.myalicdn.com/gc/zjwzbblh_1/index.m3u8
乌镇龙形田,https://gcalic.v.myalicdn.com/gc/zjwzlxt_1/index.m3u8
乌镇全景,https://gcalic.v.myalicdn.com/gc/zjwzblt_1/index.m3u8
凤凰古城南华山,https://gcalic.v.myalicdn.com/gc/fhgcdnhs_1/index.m3u8
凤凰古城东关门,https://gcalic.v.myalicdn.com/gc/fhgcdgm_1/index.m3u8
黄花城水长城01,https://gcalic.v.myalicdn.com/gc/wgw01_1/index.m3u8
黄花城水长城02,https://gcalic.v.myalicdn.com/gc/wgw02_1/index.m3u8
黄花城水长城02,https://gcalic.v.myalicdn.com/gc/wgw02_1/index.m3u8
黄花城水长城03,https://gcalic.v.myalicdn.com/gc/wgw03_1/index.m3u8
黄花城水长城04,https://gcalic.v.myalicdn.com/gc/wgw04_1/index.m3u8
鸣沙山,https://gcalic.v.myalicdn.com/gc/dhyyqst_1/index.m3u8
鸣沙山山门,https://gcalic.v.myalicdn.com/gc/dhyyqyyq_1/index.m3u8
月牙泉,https://gcalic.v.myalicdn.com/gc/dhyyqsm_1/index.m3u8
五彩池,https://gcalic.v.myalicdn.com/gc/hlwcc_1/index.m3u8
黄龙,https://gcalic.v.myalicdn.com/gc/hlzycc_1/index.m3u8
望乡台,https://gcalic.v.myalicdn.com/gc/hlwxt_1/index.m3u8
洗身洞,https://gcalic.v.myalicdn.com/gc/hlxsd_1/index.m3u8
洗身洞,https://gcalic.v.myalicdn.com/gc/hlxsd_1/index.m3u8
泰山主峰,https://gcalic.v.myalicdn.com/gc/taishan01_1/index.m3u8
泰山大观峰,https://gcalic.v.myalicdn.com/gc/taishan03_1/index.m3u8
泰山拱北石,https://gcalic.v.myalicdn.com/gc/taishan04_1/index.m3u8
泰山玉皇顶,https://gcalic.v.myalicdn.com/gc/taishan06_1/index.m3u8
泰山玉皇顶,https://gcalic.v.myalicdn.com/gc/taishan06_1/index.m3u8
泰山十八盘,https://gcalic.v.myalicdn.com/gc/taishan05_1/index.m3u8
泰山天街,https://gcalic.v.myalicdn.com/gc/taishan07_1/index.m3u8
泰山经石峪,https://gcalic.v.myalicdn.com/gc/hkts04_1/index.m3u8
泰山望人松,https://gcalic.v.myalicdn.com/gc/taishan02_1/index.m3u8
泰山龙潭水库,https://gcalic.v.myalicdn.com/gc/hkts06_1/index.m3u8
泰山南天门,https://gcalic.v.myalicdn.com/gc/hkts07_1/index.m3u8
泰山白云亭悬崖,https://gcalic.v.myalicdn.com/gc/hkts02_1/index.m3u8
泰山扇子崖,https://gcalic.v.myalicdn.com/gc/hkts08_1/index.m3u8
泰山太平岭,https://gcalic.v.myalicdn.com/gc/hkts09_1/index.m3u8
泰山太平岭,https://gcalic.v.myalicdn.com/gc/hkts09_1/index.m3u8
泰山碧霞祠,https://gcalic.v.myalicdn.com/gc/hkts03_1/index.m3u8
泰山玉皇顶东,https://gcalic.v.myalicdn.com/gc/hkts10_1/index.m3u8
泰山玉皇顶东,https://gcalic.v.myalicdn.com/gc/hkts10_1/index.m3u8
泰山玉皇顶西,https://gcalic.v.myalicdn.com/gc/hkts11_1/index.m3u8
黄山始信新道,https://gcalic.v.myalicdn.com/gc/hsyg_1/index.m3u8
黄山梦笔生花,https://gcalic.v.myalicdn.com/gc/hsmbsh_1/index.m3u8
黄山排云亭,https://gcalic.v.myalicdn.com/gc/hspyt_1/index.m3u8
黄山平天矼,https://gcalic.v.myalicdn.com/gc/hsptgz_1/index.m3u8
黄山飞来石,https://gcalic.v.myalicdn.com/gc/hsptgy_1/index.m3u8
黄山光明顶,https://gcalic.v.myalicdn.com/gc/hsgmd_1/index.m3u8
黄山,https://gcalic.v.myalicdn.com/gc/ahhs01_1/index.m3u8
福建宁德太姥山景区,https://gcalic.v.myalicdn.com/gc/tms01_1/index.m3u8
陕西洋县国宝朱鹮03,https://gcalic.v.myalicdn.com/gc/zh03_1/index.m3u8
陕西洋县国宝朱鹮04,https://gcalic.v.myalicdn.com/gc/zh04_1/index.m3u8
安徽黟县西递半山亭,https://gcalic.v.myalicdn.com/gc/yxxdbst_1/index.m3u8
安徽黟县西递牌坊,https://gcalic.v.myalicdn.com/gc/yxxdpf_1/index.m3u8
安徽黟县宏村月沼,https://gcalic.v.myalicdn.com/gc/yxhcyz_1/index.m3u8
安徽黟县宏村月沼,https://gcalic.v.myalicdn.com/gc/yxhcyz_1/index.m3u8
安徽黟县芦村远眺,https://gcalic.v.myalicdn.com/gc/yxlcyt_1/index.m3u8
深圳世界之窗文化主题公园,https://gcalic.v.myalicdn.com/gc/sjzc01_1/index.m3u8
深圳世界之窗文化主题公园,https://gcalic.v.myalicdn.com/gc/sjzc01_1/index.m3u8
八达岭长城南七楼,https://gcalic.v.myalicdn.com/gc/bgws7_1/index.m3u8
八达岭长城北十楼,https://gcalic.v.myalicdn.com/gc/bgwn10_1/index.m3u8
中央电视塔东,https://gcalic.v.myalicdn.com/gc/ztd_1/index.m3u8
中央电视塔南,https://gcalic.v.myalicdn.com/gc/ztn_1/index.m3u8
中央电视塔北,https://gcalic.v.myalicdn.com/gc/ztb_1/index.m3u8
恒山悬空寺全景,https://gcalic.v.myalicdn.com/gc/hsxksqj_1/index.m3u8
恒山悬空寺全景,https://gcalic.v.myalicdn.com/gc/hsxksqj_1/index.m3u8
恒宗,https://gcalic.v.myalicdn.com/gc/hsxkssqdzrqj_1/index.m3u8
黄果树银链坠潭瀑布,https://gcalic.v.myalicdn.com/gc/hgsylztpb_1/index.m3u8
黄果树银链坠潭瀑布,https://gcalic.v.myalicdn.com/gc/hgsylztpb_1/index.m3u8
黄果树六角亭瀑布,https://gcalic.v.myalicdn.com/gc/hgsspzxdpb_1/index.m3u8
天涯鸟瞰,https://gcalic.v.myalicdn.com/gc/tyhjtynl_1/index.m3u8
天涯石,https://gcalic.v.myalicdn.com/gc/tyhjtys_1/index.m3u8
天涯石,https://gcalic.v.myalicdn.com/gc/tyhjtys_1/index.m3u8
南天一柱,https://gcalic.v.myalicdn.com/gc/tyhjntyz_1/index.m3u8
日月石,https://gcalic.v.myalicdn.com/gc/tyhjrys_1/index.m3u8
日月石,https://gcalic.v.myalicdn.com/gc/tyhjrys_1/index.m3u8
桂林象山公园,https://gcalic.v.myalicdn.com/gc/glxs01_1/index.m3u8
六盘山红军长征景区,https://gcalic.v.myalicdn.com/gc/lpsgmjng01_1/index.m3u8
华山,https://gcalic.v.myalicdn.com/gc/hkhs01_1/index.m3u8
贵州省兴义市万峰林,https://gcalic.v.myalicdn.com/gc/xywfl_1/index.m3u8
贵州省兴义市马岭河峡谷,https://gcalic.v.myalicdn.com/gc/xymlh_1/index.m3u8
贵州省贞丰市双峰景区,https://gcalic.v.myalicdn.com/gc/xysrf_1/index.m3u8
云南大理崇圣寺三塔中景,https://gcalic.v.myalicdn.com/gc/dlst03_1/index.m3u8
云南大理崇圣寺三塔湖面,https://gcalic.v.myalicdn.com/gc/dlst02_1/index.m3u8
云南大理崇圣寺三塔远景,https://gcalic.v.myalicdn.com/gc/dlst01_1/index.m3u8
广西桂林漓江景区,https://gcalic.v.myalicdn.com/gc/gllj01_1/index.m3u8
青岛崂山双福,https://gcalic.v.myalicdn.com/gc/qdls03_1/index.m3u8
青岛崂山太清,https://gcalic.v.myalicdn.com/gc/qdls04_1/index.m3u8
青岛崂山灵旗峰,https://gcalic.v.myalicdn.com/gc/qdls01_1/index.m3u8
青岛崂山八水河,https://gcalic.v.myalicdn.com/gc/qdls02_1/index.m3u8
三亚南山文化旅游区海上观音,https://gcalic.v.myalicdn.com/gc/syns01_1/index.m3u8
仙都风景区,https://gcalic.v.myalicdn.com/gc/xdfjq01_1/index.m3u8
仙都风景区,https://gcalic.v.myalicdn.com/gc/xdfjq01_1/index.m3u8
宁夏黄河大峡谷,https://gcalic.v.myalicdn.com/gc/hhdxg01_1/index.m3u8
宁夏黄河大峡谷,https://gcalic.v.myalicdn.com/gc/hhdxg01_1/index.m3u8
张掖七彩丹霞,https://gcalic.v.myalicdn.com/gc/zyqcdx01_1/index.m3u8
嵩山少林寺广场,https://gcalic.v.myalicdn.com/gc/zsslsgc_1/index.m3u8
婺源01,https://gcalic.v.myalicdn.com/gc/wygjt1_1/index.m3u8
神农架金丝猴01,https://gcalic.v.myalicdn.com/gc/jshhd01_1/index.m3u8
都江堰鱼嘴,https://gcalic.v.myalicdn.com/gc/djyqyl1_1/index.m3u8
丹霞山丹梯铁锁,https://gcalic.v.myalicdn.com/gc/dxsdtts_1/index.m3u8
丹霞山韶音亭,https://gcalic.v.myalicdn.com/gc/dxssyt_1/index.m3u8
云南红河哈尼梯田多依树景点,https://gcalic.v.myalicdn.com/gc/hnttdysjd_1/index.m3u8
云南红河哈尼梯田普高老寨,https://gcalic.v.myalicdn.com/gc/hnttpgsz_1/index.m3u8
云南红河哈尼梯田老虎嘴,https://gcalic.v.myalicdn.com/gc/hnttlhzjd_1/index.m3u8
江西龙虎山中间水泡,https://gcalic.v.myalicdn.com/gc/lhszjsp_1/index.m3u8
江西龙虎山山涧栈道,https://gcalic.v.myalicdn.com/gc/lhssjzd_1/index.m3u8
江西龙虎山山涧栈道,https://gcalic.v.myalicdn.com/gc/lhssjzd_1/index.m3u8
乐山大佛全景,https://gcalic.v.myalicdn.com/gc/lsdfgfl_1/index.m3u8
乐山大佛全景,https://gcalic.v.myalicdn.com/gc/lsdfgfl_1/index.m3u8

春晚现场,#genre#
春晚1984,http://txmov2.a.kwimgs.com/upic/2022/01/31/15/BMjAyMjAxMzExNTU5NTRfNDAzMDAxOTlfNjYyNzMyMzg3MTRfMF8z_b_B192356dadbc90d207ba16964d4c2914c.mp4
春晚1985,http://txmov2.a.kwimgs.com/upic/2022/01/31/16/BMjAyMjAxMzExNjAwMDFfNDAzMDAxOTlfNjYyNzMyNTAwMzJfMF8z_b_Be73c5abcbc0eeb2ec9fce6842e1362a4.mp4
春晚1986,https://txmov2.a.kwimgs.com/bs3/video-hls/5231493982164619599_hlshd15.m3u8
春晚1987,https://txmov2.a.kwimgs.com/bs3/video-hls/5195746663405928031_hlsb.m3u8
西游齐天乐1987,http://50069.njc.svp.tencent-cloud.com/0bc3fuaaiaaavuaibgr5f5rfalodaqwqabaa.f10003.mp4
春晚1988,https://txmov2.a.kwimgs.com/bs3/video-hls/5216575810935394655_hlsb.m3u8
春晚1989,http://txmov2.a.kwimgs.com/upic/2022/01/31/16/BMjAyMjAxMzExNjAwMTVfNDAzMDAxOTlfNjYyNzMyNzQ2OTlfMF8z_b_Be477b27b9ce655d2372df56a5a3d96ef.mp4
春晚1991,https://txmov2.a.kwimgs.com/bs3/video-hls/5210664837540712798_hlshd15.m3u8
春晚1992,https://txmov2.a.kwimgs.com/bs3/video-hls/5256826755663896297_hlshd15.m3u8
春晚1993,https://txmov2.a.kwimgs.com/bs3/video-hls/5217420261875933947_hlshd15.m3u8
春晚1994,https://txmov2.a.kwimgs.com/bs3/video-hls/5197154061406974711_hlshd15.m3u8
春晚1995,https://txmov2.a.kwimgs.com/bs3/video-hls/5255137907893179578_hlshd15.m3u8
春晚1997,https://txmov2.a.kwimgs.com/bs3/video-hls/5230649583590411879_hlshd15.m3u8
春晚1998,https://txmov2.a.kwimgs.com/bs3/video-hls/5225864507896315430_hlshd15.m3u8
春晚1999,https://txmov2.a.kwimgs.com/bs3/video-hls/5258234133675308186_hlshd15.m3u8
春晚2000,https://txmov2.a.kwimgs.com/bs3/video-hls/5216294359327079321_hlshd15.m3u8
春晚2001,https://txmov2.a.kwimgs.com/bs3/video-hls/5228960735897942616_hlshd15.m3u8
春晚2002,https://txmov2.a.kwimgs.com/bs3/video-hls/5255700858599864364_hlshd15.m3u8
春晚2004,https://txmov2.a.kwimgs.com/bs3/video-hls/5223894184413450769_hlshd15.m3u8
春晚2005,https://txmov2.a.kwimgs.com/bs3/video-hls/5254012008863954469_hlshd15.m3u8
春晚2006,https://txmov2.a.kwimgs.com/bs3/video-hls/5194339310474320155_hlshd15.m3u8
春晚2007,https://txmov2.a.kwimgs.com/bs3/video-hls/5219953534755647343_hlshd15.m3u8
春晚2008,https://txmov2.a.kwimgs.com/bs3/video-hls/5194902262344826321_hlshd15.m3u8
春晚2009,https://txmov2.a.kwimgs.com/bs3/video-hls/5210946337266019890_hlshd15.m3u8
春晚2014,https://txmov2.a.kwimgs.com/bs3/video-hls/5245286283437869627_hlshd15.m3u8
春晚2019,https://txmov2.a.kwimgs.com/bs3/video-hls/5222205336887088723_hlshd15.m3u8
春晚2020,https://txmov2.a.kwimgs.com/bs3/video-hls/5248101009010430183_hlshd15.m3u8
春晚2021,http://txmov2.a.kwimgs.com/upic/2022/01/30/17/BMjAyMjAxMzAxNzE4NTJfNDAzMDAxOTlfNjYxNzUzOTg3NjlfMF8z_b_Be41d9503181d7b0608a839ed401e02c2.mp4
春晚2022,http://txmov2.a.kwimgs.com/upic/2022/02/01/11/BMjAyMjAyMDExMTEwMjNfNDAzMDAxOTlfNjYzNzA4MTk4NzNfMF8z_b_B898cc7ddd0025bf54ddb18ec1f723c84.mp4
春晚2023,https://txmov2.a.kwimgs.com/bs3/video-hls/5251197255879398624_hlshd15.m3u8
春晚1992,https://txmov2.a.kwimgs.com/bs3/video-hls/5256826755663896297_hlshd15.m3u8
春晚1993,https://txmov2.a.kwimgs.com/bs3/video-hls/5217420261875933947_hlshd15.m3u8
春晚1994,https://txmov2.a.kwimgs.com/bs3/video-hls/5197154061406974711_hlshd15.m3u8
春晚1995,https://txmov2.a.kwimgs.com/bs3/video-hls/5255137907893179578_hlshd15.m3u8
春晚1997,https://txmov2.a.kwimgs.com/bs3/video-hls/5230649583590411879_hlshd15.m3u8
春晚1999,https://txmov2.a.kwimgs.com/bs3/video-hls/5258234133675308186_hlshd15.m3u8
春晚2001,https://txmov2.a.kwimgs.com/bs3/video-hls/5228960735897942616_hlshd15.m3u8
春晚2014,https://txmov2.a.kwimgs.com/bs3/video-hls/5245286283437869627_hlshd15.m3u8
春晚2019,https://txmov2.a.kwimgs.com/bs3/video-hls/5222205336887088723_hlshd15.m3u8
春晚2020,http://txmov2.a.kwimgs.com/upic/2022/01/30/17/BMjAyMjAxMzAxNzA5NDdfNDAzMDAxOTlfNjYxNzQ2MDAyMTFfMF8z_b_B5d51d9564c5670dc66faeba20aa7af3f.mp4
春晚2021,http://txmov2.a.kwimgs.com/upic/2022/01/30/17/BMjAyMjAxMzAxNzE4NTJfNDAzMDAxOTlfNjYxNzUzOTg3NjlfMF8z_b_Be41d9503181d7b0608a839ed401e02c2.mp4 
春晚2022,http://txmov2.a.kwimgs.com/upic/2022/02/01/11/BMjAyMjAyMDExMTEwMjNfNDAzMDAxOTlfNjYzNzA4MTk4NzNfMF8z_b_B898cc7ddd0025bf54ddb18ec1f723c84.mp4 
春晚2023,https://txmov2.a.kwimgs.com/bs3/video-hls/5251197255879398624_hlshd15.m3u8 
春晚2024,https://p2.bdstatic.com/rtmp.liveshow.lss-user.baidubce.com/live/stream_bduid_6488563992_8982723413/merged_1707497046297_88536_25144_41936.m3u8 
春晚2024,https://ikcdn01.ikzybf.com/20240205/QBNgom4j/2000kb/hls/index.m3u8
